<?xml version="1.0" encoding="UTF-8" standalone="no"?>
<!-- Created with Inkscape (http://www.inkscape.org/) -->

<svg
   xmlns:dc="http://purl.org/dc/elements/1.1/"
   xmlns:cc="http://creativecommons.org/ns#"
   xmlns:rdf="http://www.w3.org/1999/02/22-rdf-syntax-ns#"
   xmlns:svg="http://www.w3.org/2000/svg"
   xmlns="http://www.w3.org/2000/svg"
   xmlns:sodipodi="http://sodipodi.sourceforge.net/DTD/sodipodi-0.dtd"
   xmlns:inkscape="http://www.inkscape.org/namespaces/inkscape"
   width="1488.189"
   height="2104.7244"
   id="svg3861"
   version="1.1"
   inkscape:version="0.92.1 unknown"
   sodipodi:docname="540-deaf-autre1-c_2017_new.svg"
   inkscape:export-filename="C:\Users\deaf\Desktop\autre1-c.png"
   inkscape:export-xdpi="36.285713"
   inkscape:export-ydpi="36.285713">
  <defs
     id="defs3863" />
  <sodipodi:namedview
     id="base"
     pagecolor="#ffffff"
     bordercolor="#666666"
     borderopacity="1.0"
     inkscape:pageopacity="0.0"
     inkscape:pageshadow="2"
     inkscape:zoom="0.26870058"
     inkscape:cx="24.307774"
     inkscape:cy="995.16553"
     inkscape:document-units="px"
     inkscape:current-layer="layer1"
     showgrid="false"
     inkscape:window-width="1621"
     inkscape:window-height="1026"
     inkscape:window-x="59"
     inkscape:window-y="24"
     inkscape:window-maximized="1"
     showguides="true"
     inkscape:guide-bbox="true" />
  <metadata
     id="metadata3866">
    <rdf:RDF>
      <cc:Work
         rdf:about="">
        <dc:format>image/svg+xml</dc:format>
        <dc:type
           rdf:resource="http://purl.org/dc/dcmitype/StillImage" />
        <dc:title></dc:title>
      </cc:Work>
    </rdf:RDF>
  </metadata>
  <g
     inkscape:label="Calque 1"
     inkscape:groupmode="layer"
     id="layer1"
     transform="translate(0,1052.3622)">
    <rect
       style="fill:#8814cc;fill-opacity:1;stroke:none;opacity:1"
       id="rect4680"
       width="1511.3784"
       height="2006.1152"
       x="-1.7418152"
       y="-1070.4324" />
    <g
       id="g3080"
       transform="translate(8.9432526,-943.95774)"
       style="opacity:0.124">
      <path
         id="path3082"
         d="m 738.42517,1441.7716 c -388.45274,0 -703.346431,-314.8937 -703.346431,-703.34643 0,-388.41731 314.893691,-703.346431 703.346431,-703.346431 388.45273,0 703.34643,314.929121 703.34643,703.346431 0,388.45273 -314.8937,703.34643 -703.34643,703.34643 z"
         style="fill:#ffffff;fill-opacity:1;fill-rule:nonzero;stroke:#000000;stroke-width:70.15747832999998900px;stroke-linecap:butt;stroke-linejoin:miter;stroke-miterlimit:4;stroke-opacity:1;stroke-dasharray:none"
         inkscape:connector-curvature="0" />
      <path
         id="path3084"
         d="m 386.36219,351.28345 c 77.42126,-22.53543 403.79526,21.89764 337.11023,337.60629 -24.27166,114.87401 -157.42913,170.85826 -221.98819,219.18897 -152.78739,114.44879 -21.2244,386.18499 -21.2244,386.18499 0,0 -71.18504,-211.3582 87.34251,-311.38578 C 713.48029,890.89367 1216.311,934.12201 1214.6102,650.30313 1211.2795,106.58267 364.00392,302.74015 386.36219,351.28345 z"
         style="fill:#000000;fill-opacity:1;fill-rule:nonzero;stroke:none"
         inkscape:connector-curvature="0" />
      <path
         id="path3086"
         d="m 451.45274,195.80314 64.45275,0 0,799.44092 -64.45275,0 z"
         style="fill:#000000;fill-opacity:1;fill-rule:nonzero;stroke:none"
         inkscape:connector-curvature="0" />
    </g>
    <path
       style="opacity:1;fill:#000000;stroke:none;stroke-width:1.10331488"
       d="m -179.36346,1086.5092 c 1.31441,-7.0892 17.56693,-98.56509 36.11671,-203.28007 18.54967,-104.71483 33.9462,-190.52884 34.21455,-190.69769 3.26519,-2.0556 192.127116,-47.54029 226.31281,-54.50421 99.61639,-20.2927 132.71205,-23.72378 227.30674,-23.56517 80.32577,0.13459 90.38883,0.78554 134.20286,8.68105 60.35747,10.87666 126.9975,28.0816 214.72448,55.43714 115.24833,35.93746 171.65834,52.50985 213.14565,62.61914 221.99416,54.0936 411.95186,46.17639 629.53676,-26.23846 27.9898,-9.31538 51.3844,-16.44496 51.9879,-15.84346 0.6035,0.60149 24.8762,87.94285 53.9392,194.09186 l 52.8417,192.99837 -42.8571,0.6342 c -23.5716,0.349 -411.5993,2.8225 -862.28386,5.4967 -450.68457,2.6743 -853.66067,5.3569 -895.50242,5.9611 l -76.07597,1.0988 z"
       id="path4565"
       inkscape:connector-curvature="0" />
    <flowRoot
       xml:space="preserve"
       id="flowRoot3903"
       style="font-style:normal;font-weight:normal;line-height:0.01%;font-family:sans-serif;letter-spacing:0px;word-spacing:0px;fill:#000000;fill-opacity:1;stroke:none;stroke-width:1px;stroke-linecap:butt;stroke-linejoin:miter;stroke-opacity:1"><flowRegion
         id="flowRegion3905"
         style="font-family:sans-serif"><rect
           id="rect3907"
           width="1115.7894"
           height="147.36842"
           x="100"
           y="796.82965"
           style="font-family:sans-serif" /></flowRegion><flowPara
         id="flowPara3909"
         style="font-size:40px;line-height:1.26999998;font-family:sans-serif"> </flowPara></flowRoot>    <flowRoot
       xml:space="preserve"
       id="flowRoot3956"
       style="font-style:normal;font-weight:normal;line-height:0.01%;font-family:sans-serif;letter-spacing:0px;word-spacing:0px;fill:#000000;fill-opacity:1;stroke:none;stroke-width:1px;stroke-linecap:butt;stroke-linejoin:miter;stroke-opacity:1"><flowRegion
         id="flowRegion3958"
         style="font-family:sans-serif"><rect
           id="rect3960"
           width="884.21051"
           height="268.42105"
           x="10.526316"
           y="841.56647"
           style="font-family:sans-serif" /></flowRegion><flowPara
         id="flowPara3962"
         style="font-size:40px;line-height:1.26999998;font-family:sans-serif"> </flowPara></flowRoot>    <flowRoot
       xml:space="preserve"
       id="flowRoot4004"
       style="font-style:normal;font-weight:normal;line-height:0.01%;font-family:sans-serif;letter-spacing:0px;word-spacing:0px;fill:#000000;fill-opacity:1;stroke:none;stroke-width:1px;stroke-linecap:butt;stroke-linejoin:miter;stroke-opacity:1"><flowRegion
         id="flowRegion4006"
         style="font-family:sans-serif"><rect
           id="rect4008"
           width="844.73682"
           height="102.63158"
           x="136.8421"
           y="602.09277"
           style="font-family:sans-serif" /></flowRegion><flowPara
         id="flowPara4010"
         style="font-size:40px;line-height:1.26999998;font-family:sans-serif"> </flowPara></flowRoot>    <flowRoot
       xml:space="preserve"
       id="flowRoot4638"
       style="font-style:normal;font-variant:normal;font-weight:bold;font-stretch:normal;line-height:0.01%;font-family:'Doris PP';-inkscape-font-specification:'PreussischeIV44Ausgabe3 Bold';letter-spacing:-4.8499999px;word-spacing:0px;fill:#ffffff;fill-opacity:1;stroke:none"
       transform="rotate(-0.18312966,-247921.88,-51265.449)"><flowRegion
         id="flowRegion4640"><rect
           id="rect4642"
           width="1423.6842"
           height="528.94739"
           x="42.105263"
           y="28.408575"
           style="font-style:normal;font-variant:normal;font-weight:bold;font-stretch:normal;font-size:200px;font-family:'Doris PP';-inkscape-font-specification:'PreussischeIV44Ausgabe3 Bold';letter-spacing:-4.8499999px;fill:#ffffff;fill-opacity:1" /></flowRegion><flowPara
         id="flowPara4644"
         style="font-size:200px;line-height:1.26999998"> </flowPara><flowPara
         id="flowPara4646"
         style="font-style:normal;font-variant:normal;font-weight:bold;font-stretch:normal;font-size:200px;line-height:1.26999998;font-family:PreussischeIV44Ausgabe3;-inkscape-font-specification:'PreussischeIV44Ausgabe3 Bold';letter-spacing:-4.8499999px"> </flowPara><flowPara
         style="font-style:normal;font-variant:normal;font-weight:bold;font-stretch:normal;font-size:200px;line-height:1.26999998;font-family:PreussischeIV44Ausgabe3;-inkscape-font-specification:'PreussischeIV44Ausgabe3 Bold';letter-spacing:-4.8499999px"
         id="flowPara3948"> </flowPara><flowPara
         id="flowPara3946"
         style="font-size:200px;line-height:1.26999998">     </flowPara><flowPara
         id="flowPara3942"
         style="font-size:200px;line-height:1.26999998" /><flowPara
         id="flowPara4652"
         style="font-size:200px;line-height:1.26999998" /><flowPara
         id="flowPara4654"
         style="font-size:200px;line-height:1.26999998" /><flowPara
         id="flowPara4656"
         style="font-size:200px;line-height:1.26999998" /></flowRoot>    <g
       id="g193">
      <rect
         y="-177.90099"
         x="76.315788"
         height="189.47368"
         width="1128.7151"
         id="rect4098-7-4"
         style="opacity:0.98999999;fill:#000000;fill-opacity:1;fill-rule:nonzero;stroke:none;stroke-width:1.0652169" />
      <flowRoot
         transform="rotate(-0.18312966,-33543.089,-15637.724)"
         style="font-style:normal;font-variant:normal;font-weight:500;font-stretch:normal;font-size:160px;line-height:0.01%;font-family:Ubuntu;-inkscape-font-specification:'Ubuntu, Medium';font-variant-ligatures:normal;font-variant-caps:normal;font-variant-numeric:normal;font-feature-settings:normal;text-align:start;letter-spacing:-4.8499999px;word-spacing:0px;writing-mode:lr-tb;text-anchor:start;fill:#ffffff;fill-opacity:1;stroke:none"
         id="flowRoot4638-3"
         xml:space="preserve"><flowRegion
           id="flowRegion4640-6"
           style="font-style:normal;font-variant:normal;font-weight:500;font-stretch:normal;font-size:160px;font-family:Ubuntu;-inkscape-font-specification:'Ubuntu, Medium';font-variant-ligatures:normal;font-variant-caps:normal;font-variant-numeric:normal;font-feature-settings:normal;text-align:start;writing-mode:lr-tb;text-anchor:start"><rect
             style="font-style:normal;font-variant:normal;font-weight:500;font-stretch:normal;font-size:160px;font-family:Ubuntu;-inkscape-font-specification:'Ubuntu, Medium';font-variant-ligatures:normal;font-variant-caps:normal;font-variant-numeric:normal;font-feature-settings:normal;text-align:start;letter-spacing:-4.8499999px;writing-mode:lr-tb;text-anchor:start;fill:#ffffff;fill-opacity:1"
             y="28.408575"
             x="42.105263"
             height="528.94739"
             width="1423.6842"
             id="rect4642-2" /></flowRegion><flowPara
           id="flowPara170"> VOUS N'ALLEZ</flowPara></flowRoot>    </g>
    <flowRoot
       xml:space="preserve"
       id="flowRoot4638-1"
       style="font-style:normal;font-variant:normal;font-weight:bold;font-stretch:normal;line-height:0.01%;font-family:PreussischeIV44Ausgabe3;-inkscape-font-specification:'PreussischeIV44Ausgabe3 Bold';letter-spacing:0px;word-spacing:0px;fill:#97be0d;fill-opacity:1;stroke:none"
       transform="rotate(-0.18312966,-541170.08,56150.287)"><flowRegion
         id="flowRegion4640-26"><rect
           id="rect4642-0"
           width="1423.6842"
           height="528.94739"
           x="42.105263"
           y="28.408575"
           style="font-style:normal;font-variant:normal;font-weight:bold;font-stretch:normal;font-size:240px;font-family:PreussischeIV44Ausgabe3;-inkscape-font-specification:'PreussischeIV44Ausgabe3 Bold';fill:#97be0d;fill-opacity:1" /></flowRegion><flowPara
         id="flowPara4646-9"
         style="font-size:240px;line-height:1.26999998"> </flowPara><flowPara
         id="flowPara4648"
         style="font-size:240px;line-height:1.26999998;letter-spacing:-4.8499999px;fill:#97be0d;fill-opacity:1">POURQUOI   </flowPara><flowPara
         id="flowPara4652-4"
         style="font-size:240px;line-height:1.26999998" /><flowPara
         id="flowPara4654-6"
         style="font-size:240px;line-height:1.26999998" /><flowPara
         id="flowPara4656-0"
         style="font-size:240px;line-height:1.26999998" /></flowRoot>    <g
       id="g200"
       transform="translate(15.659146,23.924177)">
      <rect
         y="27.362143"
         x="444.73685"
         height="205.26315"
         width="838.41577"
         id="rect4098"
         style="opacity:0.98999999;fill:#000000;fill-opacity:1;fill-rule:nonzero;stroke:none;stroke-width:1.06861043" />
      <flowRoot
         transform="rotate(-0.18312966,37646.527,-136726.53)"
         style="font-style:normal;font-variant:normal;font-weight:500;font-stretch:normal;font-size:160px;line-height:0.01%;font-family:Ubuntu;-inkscape-font-specification:'Ubuntu, Medium';font-variant-ligatures:normal;font-variant-caps:normal;font-variant-numeric:normal;font-feature-settings:normal;text-align:start;letter-spacing:-4.85000086px;word-spacing:0px;writing-mode:lr-tb;text-anchor:start;fill:#ffffff;fill-opacity:1;stroke:none"
         id="flowRoot4638-5-0"
         xml:space="preserve"><flowRegion
           style="font-style:normal;font-variant:normal;font-weight:500;font-stretch:normal;font-size:160px;font-family:Ubuntu;-inkscape-font-specification:'Ubuntu, Medium';font-variant-ligatures:normal;font-variant-caps:normal;font-variant-numeric:normal;font-feature-settings:normal;text-align:start;writing-mode:lr-tb;text-anchor:start"
           id="flowRegion4640-2-9"><rect
             style="font-style:normal;font-variant:normal;font-weight:500;font-stretch:normal;font-size:160px;font-family:Ubuntu;-inkscape-font-specification:'Ubuntu, Medium';font-variant-ligatures:normal;font-variant-caps:normal;font-variant-numeric:normal;font-feature-settings:normal;text-align:start;letter-spacing:-4.85000086px;writing-mode:lr-tb;text-anchor:start;fill:#ffffff;fill-opacity:1"
             y="28.408575"
             x="42.105263"
             height="528.94739"
             width="1423.6842"
             id="rect4642-3-4" /></flowRegion><flowPara
           id="flowPara181">MÊME PAS</flowPara></flowRoot>    </g>
    <g
       id="g225">
      <rect
         y="-744.54816"
         x="36.094044"
         height="220.33664"
         width="1454.8438"
         id="rect4098-1"
         style="opacity:0.98999999;fill:#000000;fill-opacity:1;fill-rule:nonzero;stroke:none;stroke-width:1.13174105" />
      <flowRoot
         transform="rotate(-0.18312966,-208753.67,939.17967)"
         style="font-style:normal;font-variant:normal;font-weight:500;font-stretch:normal;font-size:160px;line-height:0.01%;font-family:Ubuntu;-inkscape-font-specification:'Ubuntu, Medium';font-variant-ligatures:normal;font-variant-caps:normal;font-variant-numeric:normal;font-feature-settings:normal;text-align:start;letter-spacing:-4.85000086px;word-spacing:0px;writing-mode:lr-tb;text-anchor:start;fill:#ffffff;fill-opacity:1;stroke:none"
         id="flowRoot4638-5"
         xml:space="preserve"><flowRegion
           style="font-style:normal;font-variant:normal;font-weight:500;font-stretch:normal;font-size:160px;font-family:Ubuntu;-inkscape-font-specification:'Ubuntu, Medium';font-variant-ligatures:normal;font-variant-caps:normal;font-variant-numeric:normal;font-feature-settings:normal;text-align:start;writing-mode:lr-tb;text-anchor:start"
           id="flowRegion4640-2"><rect
             style="font-style:normal;font-variant:normal;font-weight:500;font-stretch:normal;font-size:160px;font-family:Ubuntu;-inkscape-font-specification:'Ubuntu, Medium';font-variant-ligatures:normal;font-variant-caps:normal;font-variant-numeric:normal;font-feature-settings:normal;text-align:start;letter-spacing:-4.85000086px;writing-mode:lr-tb;text-anchor:start;fill:#ffffff;fill-opacity:1"
             y="28.408575"
             x="42.105263"
             height="528.94739"
             width="1423.6842"
             id="rect4642-3" /></flowRegion><flowPara
           id="flowPara156"> EST-CE QUE JE SUIS</flowPara></flowRoot>    </g>
    <flowRoot
       xml:space="preserve"
       id="flowRoot3943"
       style="font-style:normal;font-weight:normal;line-height:0.01%;font-family:sans-serif;letter-spacing:0px;word-spacing:0px;fill:#000000;fill-opacity:1;stroke:none;stroke-width:1px;stroke-linecap:butt;stroke-linejoin:miter;stroke-opacity:1"><flowRegion
         id="flowRegion3945"
         style="font-family:sans-serif"><rect
           id="rect3947"
           width="1705.2632"
           height="468.42105"
           x="-1205.2632"
           y="1281.0402"
           style="font-family:sans-serif" /></flowRegion><flowPara
         id="flowPara3949"
         style="font-size:40px;line-height:1.26999998;font-family:sans-serif"> </flowPara></flowRoot>    <flowRoot
       xml:space="preserve"
       id="flowRoot3951"
       style="font-style:normal;font-weight:normal;line-height:0.01%;font-family:sans-serif;letter-spacing:0px;word-spacing:0px;fill:#000000;fill-opacity:1;stroke:none;stroke-width:1px;stroke-linecap:butt;stroke-linejoin:miter;stroke-opacity:1"><flowRegion
         id="flowRegion3953"
         style="font-family:sans-serif"><rect
           id="rect3955"
           width="684.21051"
           height="157.89473"
           x="392.10526"
           y="928.40857"
           style="font-family:sans-serif" /></flowRegion><flowPara
         id="flowPara3957"
         style="font-size:40px;line-height:1.26999998;font-family:sans-serif"> </flowPara></flowRoot>    <g
       id="g1123">
      <rect
         y="-1012.3306"
         x="103.08311"
         height="230.56636"
         width="923.68427"
         id="rect4098-5"
         style="opacity:0.98999999;fill:#000000;fill-opacity:1;fill-rule:nonzero;stroke:none;stroke-width:0.90915275" />
      <text
         id="text3082"
         y="-844.29724"
         x="138.77879"
         style="font-style:normal;font-variant:normal;font-weight:500;font-stretch:normal;font-size:160px;line-height:0%;font-family:Ubuntu;-inkscape-font-specification:'Ubuntu, Medium';font-variant-ligatures:normal;font-variant-caps:normal;font-variant-numeric:normal;font-feature-settings:normal;text-align:start;letter-spacing:0px;word-spacing:0px;writing-mode:lr-tb;text-anchor:start;fill:#8814cc;fill-opacity:0.94117647;stroke:none;"
         xml:space="preserve"><tspan
           y="-844.29724"
           x="138.77879"
           id="tspan3084"
           sodipodi:role="line"
           style="font-style:normal;font-variant:normal;font-weight:500;font-stretch:normal;font-size:160px;line-height:1.26999998;font-family:Ubuntu;-inkscape-font-specification:'Ubuntu, Medium';font-variant-ligatures:normal;font-variant-caps:normal;font-variant-numeric:normal;font-feature-settings:normal;text-align:start;writing-mode:lr-tb;text-anchor:start;fill:#8814cc;fill-opacity:0.94117647;">POURQUOI</tspan></text>
    </g>
    <g
       id="g1136">
      <flowRoot
         transform="rotate(-0.18312966,51711.28,-61271.584)"
         style="font-style:normal;font-variant:normal;font-weight:bold;font-stretch:normal;line-height:0.01%;font-family:PreussischeIV44Ausgabe3;-inkscape-font-specification:'PreussischeIV44Ausgabe3 Bold';letter-spacing:0px;word-spacing:0px;fill:#97be0d;fill-opacity:1;stroke:none"
         id="flowRoot4638-1-5"
         xml:space="preserve"><flowRegion
           id="flowRegion4640-26-1"><rect
             style="font-style:normal;font-variant:normal;font-weight:bold;font-stretch:normal;font-size:240px;font-family:PreussischeIV44Ausgabe3;-inkscape-font-specification:'PreussischeIV44Ausgabe3 Bold';fill:#97be0d;fill-opacity:1"
             y="28.408575"
             x="42.105263"
             height="528.94739"
             width="1423.6842"
             id="rect4642-0-7" /></flowRegion><flowPara
           style="font-size:240px;line-height:1.26999998"
           id="flowPara4646-9-1"> </flowPara><flowPara
           style="font-size:240px;line-height:1.26999998;letter-spacing:-4.8499999px;fill:#97be0d;fill-opacity:1"
           id="flowPara4648-1">VOTER   </flowPara><flowPara
           style="font-size:240px;line-height:1.26999998"
           id="flowPara4652-4-5" /><flowPara
           style="font-size:240px;line-height:1.26999998"
           id="flowPara4654-6-2" /><flowPara
           style="font-size:240px;line-height:1.26999998"
           id="flowPara4656-0-7" /></flowRoot>      <rect
         y="300.66415"
         x="76.315659"
         height="197.14972"
         width="671.05273"
         id="rect4098-7-4-6"
         style="opacity:0.98999999;fill:#000000;fill-opacity:1;fill-rule:nonzero;stroke:none;stroke-width:0.92218161" />
      <text
         id="text3082-1"
         y="453.12085"
         x="118.86421"
         style="font-style:normal;font-variant:normal;font-weight:500;font-stretch:normal;font-size:160px;line-height:0%;font-family:Ubuntu;-inkscape-font-specification:'Ubuntu, Medium';font-variant-ligatures:normal;font-variant-caps:normal;font-variant-numeric:normal;font-feature-settings:normal;text-align:start;letter-spacing:0px;word-spacing:0px;writing-mode:lr-tb;text-anchor:start;fill:#8814cc;fill-opacity:1;stroke:none;stroke-width:1.08974361;"
         xml:space="preserve"><tspan
           y="453.12085"
           x="118.86421"
           id="tspan186"
           sodipodi:role="line">VOTER !</tspan></text>
    </g>
    <g
       id="g218"
       transform="translate(78.153906,-11.164844)">
      <rect
         y="-489.81393"
         x="181.57895"
         height="210.52631"
         width="990.59576"
         id="rect4098-7"
         style="opacity:0.98999999;fill:#000000;fill-opacity:1;fill-rule:nonzero;stroke:none;stroke-width:1.06161439" />
      <text
         id="text3107"
         y="-322.16992"
         x="209.95064"
         style="font-style:normal;font-variant:normal;font-weight:500;font-stretch:normal;font-size:160px;line-height:0%;font-family:Ubuntu;-inkscape-font-specification:'Ubuntu, Medium';font-variant-ligatures:normal;font-variant-caps:normal;font-variant-numeric:normal;font-feature-settings:normal;text-align:start;letter-spacing:0px;word-spacing:0px;writing-mode:lr-tb;text-anchor:start;fill:#ffffff;fill-opacity:1;stroke:none"
         xml:space="preserve"><tspan
           y="-322.16992"
           x="209.95064"
           id="tspan3109"
           sodipodi:role="line"
           style="font-style:normal;font-variant:normal;font-weight:500;font-stretch:normal;font-size:160px;line-height:1.26999998;font-family:Ubuntu;-inkscape-font-specification:'Ubuntu, Medium';font-variant-ligatures:normal;font-variant-caps:normal;font-variant-numeric:normal;font-feature-settings:normal;text-align:start;writing-mode:lr-tb;text-anchor:start">COLLÉE ICI ?</tspan></text>
    </g>
    <path
       inkscape:connector-curvature="0"
       style="display:inline;fill:#000000;fill-opacity:1;stroke:none"
       d="m 1129.7811,354.8332 -5.3721,11.92032 4.1089,4.54363 0.4363,30.96636 -18.6375,11.87006 0.3653,1.00888 -27.9372,23.91666 -61.7333,-29.89297 -0.6898,-6.49668 -4.1627,0.30934 0.9729,9.74986 -0.5799,1.12053 0.6871,0.32154 3.9433,40.23809 -0.7343,-0.40083 -18.6388,31.92847 -5.24523,-0.31506 -0.46959,2.60428 10.63852,0.95031 0.2592,0.14633 0.077,-0.0885 7.8435,0.70157 c -1.6257,10.92879 -3.1413,20.74765 -3.1413,20.74765 l 1.7586,0.24192 0.2419,3.25624 4.4741,-0.58088 -62.23508,62.06424 -2.31609,-1.60965 c 0,0 0.45839,18.4381 0.39491,17.58377 -0.0635,-0.85433 -8.70782,-15.68106 -8.70782,-15.68106 0,0 -7.21103,15.621 -14.6918,17.00542 -23.47884,4.34521 -34.65986,3.39227 -40.63639,16.98608 25.71101,-14.87608 36.6901,-0.60063 43.77251,-1.55337 6.87461,-0.92486 19.69199,-6.60264 19.69199,-6.60264 -9.14673,45.48486 -20.41592,51.84352 -31.01585,70.60245 l -21.09112,9.52441 0.93431,0.30317 -4.03464,-0.19698 -0.26352,2.58897 47.66144,2.26038 c 0.28703,2.1144 0.58453,4.27252 0.84835,6.40209 0.4961,4.00171 0.91274,7.6305 1.24667,10.64083 l -5.72897,0.42574 -1.55303,-2.49539 -6.73061,-0.78478 -0.19724,-8.23224 -2.13066,1.44278 -0.22358,-3.00869 -2.60412,0.64892 0.18989,2.55527 -1.36009,0.10108 0.3216,4.32775 -3.23034,-1.08578 0.038,6.08919 -4.21146,0.76836 -0.16234,-2.18472 1.97885,-4.04278 -6.66808,-7.75137 -2.97006,2.41698 -0.70011,-3.8432 -1.91453,-1.22547 0.22665,3.04985 -3.32088,3.2721 7.28936,7.74659 1.53459,8.38176 10.34696,0.93055 17.66867,35.3224 18.36596,8.45733 -13.52811,5.89517 c 11.45474,19.01094 13.76281,36.33247 10.968,44.97956 L 1386.1208,766.622 c 0,0 3.4071,-18.13644 7.6751,-32.23258 26.2537,-14.39787 53.7883,-26.08247 80.9679,-77.67151 l 0.2888,2.21621 3.3907,0.45287 -0.6333,-6.29387 49.228,-55.29596 -1.1043,-0.91256 1.4791,-1.85028 9.0185,-5.22884 -7.3874,3.20116 0.4161,-0.52772 -214.1382,-161.21375 -7.6012,-15.84609 7.3061,1.28022 -0.248,-3.33859 -27.5723,-7.9802 -5.7619,-35.70989 -3.4406,0.54549 4.148,34.62818 -23.4633,-3.43656 -0.3915,3.0958 c 0,0 11.0772,1.27736 11.1669,2.48525 0.071,0.96088 0.203,13.99521 0.2612,20.24642 -4.6006,2.49417 -9.0715,4.9968 -13.494,7.4679 l -93.8637,-43.99957 2.63,-0.85836 -0.3584,-4.82236 -29.6429,14.34548 -1.4462,-27.82461 3.3004,-6.33726 -7.0702,-10.37419 z m 31.2622,42.02039 88.5799,41.49112 c -6.1153,3.39747 -12.3247,6.81125 -19.0485,10.24305 l -53.5461,-21.21796 -0.546,-3.44064 -3.5518,1.8387 -2.0075,-0.80406 -0.9887,2.31114 -3.193,1.64645 -5.6985,-32.06778 z m -139.3312,19.51324 55.9655,27.00598 -34.4434,29.49751 -17.8607,-21.17622 z m 95.4931,1.23339 -1.3473,28.1569 16.3639,-7.88816 -0.036,7.87698 -19.4795,7.78797 -23.943,-11.56499 28.4423,-24.3687 z m 33.9221,12.56429 c 3.2876,-0.18735 6.4459,0.81527 9.5046,1.8636 l -20.4819,10.47325 -1.5639,-9.33282 10.0012,-2.60776 c 0.8556,-0.224 1.7025,-0.34904 2.5401,-0.39575 z m 22.2236,2.36846 49.8287,19.71244 c -12.2937,5.96852 -26.4844,12.07903 -44.5455,18.47822 -3.8624,-10.23273 -6.6596,-22.37397 -5.2832,-38.19066 z m 105.2572,-2.89013 c 2.1962,-0.1632 4.7873,0.022 7.967,0.69291 l 1.0781,14.50769 -17.3801,-3.55741 -7.2564,-3.39791 c 4.8226,-2.68609 9.6865,-5.36697 14.7764,-8.05999 l -0.047,-0.0794 c 0.2939,-0.0218 0.5544,-0.0929 0.8616,-0.11576 z m 14.212,0.51863 c 6.1366,-0.20763 11.4395,1.1397 16.211,3.43731 l -0.3786,0.48352 213.0401,160.383 -2.4477,2.75128 -10.3196,4.45511 c -52.2441,-35.45023 -102.7654,-66.29233 -156.8214,-106.5407 l 3.8897,-0.0821 -1.1748,-2.9794 -9.7454,-0.64356 -14.2397,-14.27535 -12.7167,-23.34074 11.3667,1.26878 -0.245,-3.2969 -34.9219,-5.94208 -1.4964,-15.67876 z m -209.1213,16.1623 23.5538,11.34553 -0.3104,3.62849 4.9105,-1.40094 1.0762,0.54153 -6.5884,58.01233 -9.0498,3.69782 -0.1584,2.33276 c -21.4492,2.2641 -32.9786,-0.0198 -40.8458,-3.67871 -7.4198,-3.45043 -11.9451,-8.47028 -18.6083,-12.83187 l -0.01,-0.0823 -0.5129,-0.2103 c -0.737,-0.471 -1.4623,-0.95583 -2.2596,-1.40683 l -0.1844,0.3035 -5.7435,-2.5571 -0.7467,-12.83337 1.3529,1.47422 1.7537,-1.49755 20.3624,1.30461 0.9575,1.17239 1.3721,-1.05518 7.1625,0.46236 0.041,-2.78003 -3.7493,-0.26011 0.1175,-0.0916 -10.4061,-12.32256 36.5083,-31.26711 z m 172.7089,-4.7945 18.0776,8.47825 -1.4695,15.36045 -34.9269,-13.81599 c 6.4031,-3.3552 12.3881,-6.71399 18.3188,-10.02271 z m -230.1284,19.00732 12.7075,15.96448 -10.1692,8.71277 z m 204.5,-5.29191 41.6304,16.46734 -0.4233,4.34171 -13.8468,13.87645 -12.8652,0.87322 0.2695,3.62679 8.585,-0.47237 -22.2528,22.33349 -44.1042,-19.64054 c 0.099,-1.60592 0.2016,-3.22037 0.3835,-4.87696 l 5.539,-2.98152 -1.2483,-5.08741 -6.8229,2.99361 c -1.5188,-3.31557 -3.1275,-6.71347 -4.7086,-10.38356 20.6097,-7.311 36.3241,-14.28459 49.8647,-21.07028 z m -213.1612,15.89223 c -0.6028,4.34056 -1.2741,9.08469 -1.9889,13.94849 -0.086,0.58705 -0.1682,1.00921 -0.2541,1.59364 l -6.6145,-0.3375 8.8578,-15.20465 z m 5.6338,4.43032 1.1554,11.64224 -2.7477,-0.16841 c 0.084,-0.57189 0.08,-0.55603 0.1643,-1.13105 0.5391,-3.66774 0.941,-6.87505 1.4279,-10.34226 z m 19.5745,5.75623 6.4452,8.09963 -14.6258,-1.068 z m -21.6989,9.15505 2.421,0.23408 0.9832,13.23032 -5.7621,2.21046 c 0.4463,-2.91616 1.2196,-8.0358 2.3579,-15.67486 z m 282.5292,-19.33731 c 5.2258,-0.0261 10.0191,0.60095 14.3572,1.91698 l 17.7744,17.78422 -19.2818,-1.26072 z m -147.042,11.67274 c 8.7171,-0.64779 17.5243,3.22481 25.8772,5.24645 l -7.1464,3.10097 z m 134.3616,-9.98471 1.7209,14.79164 -25.1948,1.70669 14.2283,-14.3188 9.2456,-2.17902 z m 6.848,0.69326 10.813,15.56603 -8.3287,-0.54132 z m -149.5636,12.31604 19.4591,8.6659 -4.0937,1.79617 -15.7117,-10.10462 0.346,-0.35692 z m -3.1309,5.82736 11.7529,7.58102 -10.8402,4.70129 z m -10.7902,3.70295 1.2362,11.05612 -24.57,10.11466 c 7.5047,-9.65535 15.6891,-19.36172 23.3339,-21.17079 z m -113.0556,17.85045 0.1647,-0.0123 -0.077,0.0885 -0.089,-0.0762 z m 12.1356,-0.65344 c 6.2445,3.99528 11.1699,9.54946 20.1243,13.71386 9.0949,4.23004 29.3565,6.8302 52.4324,4.55803 l -9.2369,90.41006 -23.2442,-37.85056 c 4.6644,-1.93586 9.1243,-3.96831 13.4659,-5.06201 l -0.452,-1.62398 1.5371,0.0514 -0.1898,-2.55527 -1.7875,-0.0742 0.7021,-0.59089 -53.351,-60.97648 z m 225.8293,-14.95872 c 0.7103,10.63825 1.6115,21.19971 2.2436,31.86914 l -23.5719,-10.47427 21.328,-21.39485 z m -71.6869,5.69983 39.6874,17.64775 -9.8742,9.89249 -29.3349,-18.873 c -0.2783,-2.81417 -0.4592,-5.69305 -0.478,-8.66727 z m 158.713,-7.98191 4.175,-0.14465 c 28.0516,39.07169 59.7664,58.0038 69.2965,111.59482 l -62.5605,-61.65932 -13.6216,-47.22753 z m -323.8973,27.59217 1.5414,16.83565 -3.4731,31.34018 -29.65593,-1.44303 31.58783,-46.73282 z m 9.3051,4.19888 28.1492,45.85766 -25.3206,-1.10228 c -0.4061,-0.41486 -0.7993,-0.8307 -1.214,-1.27753 l -0.3162,-0.3491 -2.9239,-28.75134 1.6253,-14.37739 z m -22.4434,4.15442 -25.68837,38.00562 -1.03953,-0.0469 c -0.83348,-0.46022 -1.65286,-0.8951 -2.50385,-1.34729 l -0.69732,1.21205 -2.95383,-0.15308 -0.64197,3.07301 1.83492,0.15344 -0.58898,0.997 c 7.19509,3.8263 14.48056,8.84958 23.54593,10.6832 5.5841,1.12926 11.805,0.76218 18.6873,-1.71989 l -2.9796,26.82765 -2.4729,0.18377 2.0998,3.15958 -0.049,0.45904 0.3767,0.0548 1.5346,2.24836 4.8787,-0.15555 3.863,4.02266 0.4748,6.38845 -65.7931,-46.04416 48.1121,-48.00167 z m 179.9339,-11.29923 17.6264,11.33009 c 0.045,12.46273 -0.2536,23.17024 -0.8381,32.22181 -6.9382,-13.54748 -13.7715,-27.33252 -16.7883,-43.5519 z m -82.7127,6.2294 -0.095,0.96028 -1.0032,-0.67169 1.0976,-0.28856 z m -64.9841,4.99473 37.3149,42.60661 -11.4763,-0.5144 z m 191.814,-7.58202 28.587,12.71237 c 0.3543,7.88832 0.4761,15.86688 0.1691,24.02428 l -40.0161,-25.41483 z m -243.86612,49.41185 30.54462,2.24742 -0.022,0.25006 c -7.0563,3.19468 -12.7935,3.49476 -18.0962,2.42221 -4.2591,-0.86132 -8.3111,-2.73371 -12.42558,-4.92023 z m 37.40672,-2.44857 0.061,0.82396 -0.1652,0.0123 0.1039,-0.83624 z m 11.1553,4.55819 23.6384,0.77188 2.6892,4.40022 c -1.5761,0.52595 -3.1216,0.95854 -4.6724,1.25854 -6.7795,1.31213 -13.4357,0.62583 -21.6552,-6.43064 z m -8.519,1.91803 0.1992,7.69386 -4.5216,0.50162 0.6688,-6.05943 c 1.1989,-0.63712 2.4176,-1.36939 3.654,-2.13609 z m 39.593,-0.91159 5.3185,0.18493 c -1.4059,0.58575 -2.774,1.15006 -4.141,1.71687 l -1.1775,-1.90177 z m 271.9854,-20.12901 11.5688,29.64226 -39.2476,3.33058 -0.6646,-8.94373 7.5012,-0.55744 -0.15,-8.15293 -5.3475,-0.0166 -1.8209,-12.79493 28.1607,-2.50669 z m -307.1219,23.56914 c 9.558,7.96821 18.7175,9.53091 26.9068,7.94686 2.3392,-0.45329 4.583,-1.11579 6.7819,-1.87174 l 25.3681,41.33956 -2.7886,0.95294 -0.2716,-0.31102 -0.8577,0.72716 -0.2825,0.10383 -0.029,0.16773 -11.2649,9.58132 -39.3931,-24.83908 3.6284,-0.80835 -0.1616,-6.08002 -3.1323,0.23278 -2.5913,-22.60125 -1.5417,0.44577 -0.3706,-4.98704 z m 257.2611,-11.36808 -0.3803,12.17088 12.1799,-0.61532 0.7627,10.26279 -39.6307,3.19345 c 10.7388,-17.81911 18.323,-19.44774 27.0683,-25.01232 z m -45.7026,5.13714 c 5.7464,-0.47878 11.7296,-0.7371 17.7912,-0.94952 l -1.3413,20.98651 -15.5322,1.23706 0.1156,5.4619 20.9175,-1.26462 c 13.2042,21.94298 13.9863,53.02026 15.5741,72.94245 7.8533,-5.91643 23.3473,-9.85406 30.6694,-11.68674 l 1.8276,13.99608 -3.9962,0.87759 0.3828,5.15123 -3.4621,0.25727 -0.5368,-3.31662 -3.7918,0.28177 -0.6126,-8.24328 -4.1047,-0.0262 0.8798,7.93311 -2.7978,0.82995 -0.6746,-5.17197 -3.7458,0.9004 -4.0298,13.80984 -2.2256,0.16539 -1.2766,-8.81545 -3.4621,0.25728 -3.36,6.09277 -15.126,1.12405 -0.2298,-3.09103 2.5387,0.14255 0.036,-3.98067 -2.5338,0.47808 0.4082,-3.42875 -3.4835,-0.0309 1.0553,9.74322 -9.455,1.03382 -0.8072,-6.40513 -3.4408,0.54548 0.8449,3.00443 -3.7935,-0.29873 -0.1515,2.41506 -28.399,1.53027 c 0,0 -10.4476,-8.73889 -11.7305,-8.95043 -1.2832,-0.20997 -0.9591,4.38152 -0.9591,4.38152 l 5.9818,3.53402 -11.4429,-0.0615 c 0,0 -0.1772,1.52118 -0.086,2.74144 0.091,1.22025 5.3881,3.90985 5.3881,3.90985 l 0.1133,1.52494 -4.1216,0.30628 0.1563,2.10186 -5.3306,0.76873 0.8982,8.18013 -23.9261,1.48821 -0.6157,-8.28445 -2.5277,0.56044 -0.4779,-6.42962 -3.8132,-0.006 -0.494,-2.74019 -0.9831,0.15588 -1.0259,-13.80673 c 56.4612,-17.19538 60.4003,-4.74206 80.183,-1.23432 l -16.2033,-80.85227 7.0172,-0.93548 -2.3449,-7.57529 -11.3565,3.32999 c -1.3486,-3.47881 -2.874,-6.90464 -4.4523,-10.27841 8.7732,-3.53184 19.6406,-5.34647 31.4829,-6.31811 z m -220.8663,16.49588 1.9019,18.34223 -3.9567,0.29403 z m 151.4457,0.18353 c 12.3477,-1.09354 22.3112,1.15565 32.0072,2.96777 l -48.9977,14.33371 -2.3021,-13.1323 c 7.1069,-2.38129 13.4596,-3.65344 19.2926,-4.16918 z m -37.0676,9.80035 0.7932,10.67451 -38.4054,13.54607 c 10.0036,-8.36565 17.0727,-17.0949 37.6122,-24.22058 z m -104.1193,18.76059 37.7412,23.80161 -33.7917,28.78617 c -1.7731,-17.48859 -3.988,-41.39501 -3.988,-41.39501 l 2.7108,-1.44448 -0.4257,-5.72917 -2.8241,-0.0799 0.5776,-3.93867 z m 60.589,12.82082 -6.4996,14.03478 -6.0002,-3.78158 11.0681,-9.44248 -0.3604,-0.38723 1.7921,-0.42296 z m 398.2766,-27.73227 c 3.7728,-0.28038 7.7027,-0.46891 11.7741,-0.50236 l -32.4958,15.55209 -0.729,-1.43778 -28.4521,13.63596 -8.244,-9.99716 c 16.3863,-8.44562 34.452,-15.34194 58.1468,-17.25075 z m 20.9145,-1.3058 -37.6748,42.33671 -2.2966,-22.54035 32.5812,-15.51705 z m -139.6852,13.07441 c 33.8355,-2.45232 54.499,9.3559 66.5859,16.56071 l -27.9732,13.39286 -37.0405,-17.72026 z m -273.9291,24.08643 c -0.059,1.18999 -0.061,2.44868 -0.042,3.89831 0.03,2.3218 0.4386,6.03717 1.0981,10.32067 l -4.0886,-2.59727 c 0.7299,-2.74525 1.5077,-5.62083 2.1383,-8.03267 0.3695,-1.41384 0.5689,-2.32238 0.8937,-3.58904 z m -22.9909,6.26717 8.3482,5.26464 -23.3941,50.47507 -4.2161,0.14771 -0.2267,-3.04986 -4.0804,0.30322 -0.4375,2.47718 -1.8498,0.75952 -0.9123,-3.91075 -4.4299,0.61898 0.2726,3.66797 -3.0911,0.22971 -0.9425,-8.21824 3.1783,0.38532 -0.4103,-5.52279 -3.482,0.54854 0.034,-4.56115 -2.0012,0.3971 c -0.2282,-1.80308 -0.5421,-4.16853 -0.869,-7.22958 l 38.5094,-32.78305 z m 393.0995,-18.76844 2.6168,21.27248 -3.5955,4.03874 -0.2258,0.30657 -0.1814,0.34468 c -24.7846,47.57639 -48.4182,59.73286 -73.0723,72.94013 0.4578,-1.13475 0.9218,-2.19751 1.3838,-3.12762 6.0448,-12.16853 21.9491,-28.65184 21.9491,-28.65184 l 1.5744,-4.46867 0.041,-0.003 c 0.3186,-0.91325 2.051,-2.80356 4.8791,-5.17014 2.8276,-2.36604 6.5369,-5.32957 10.2088,-9.29584 7.1137,-7.68411 13.8969,-19.35895 14.4071,-38.12053 l 20.0146,-10.06593 z m -93.7005,7.83302 29.0499,13.921 -2.4405,1.176 0.027,4.26687 -22.7776,10.80996 -3.8586,-30.17383 z m -281.0949,22.46353 6.7406,4.26527 0.2612,-0.392 c 2.4971,14.055 6.0553,30.17671 6.0553,30.17671 6.8655,-4.48926 21.3676,-8.64916 37.6393,-12.70201 l 0.7893,14.52914 -0.041,0.003 -1.866,4.44839 -6.2814,0.798 -0.5398,-3.35831 -2.7868,-3.48114 -3.1491,0.56523 3.6238,5.82271 -15.1474,0.83584 -0.8156,-2.05285 -1.8333,0.42602 -0.294,-3.95669 -6.6357,0.49311 0.2267,3.04986 -3.8979,3.31498 -23.9402,0.743 c 1.9731,-7.08992 4.8255,-17.42004 8.3199,-30.2498 1.22,-4.4801 2.4105,-8.9492 3.5719,-13.27851 z m -7.081,2.30848 c -0.8907,3.29902 -1.6182,6.07565 -2.5318,9.42967 -3.897,14.30815 -7.0178,25.6125 -8.8096,32.02706 l -7.9408,0.2175 19.2823,-41.67372 z m -162.52716,16.88534 c 5.80258,0.2695 11.63623,0.41402 17.44511,0.52676 0.19569,1.05255 0.38039,2.02 0.57137,3.23177 0.19485,1.23632 0.39298,2.62816 0.58581,3.9764 l -34.10277,-1.6104 15.50033,-6.12453 z m 517.99936,-36.17322 c -1.1004,15.34699 -6.7191,24.43835 -12.6674,30.86319 -1.9719,2.12959 -3.9623,3.8828 -5.8878,5.53491 l 0.1051,-0.2562 2.6124,-16.1497 c 0.1243,-6.11418 -2.5091,-3.84745 -4.1529,-4.58124 l -6.9973,7.89643 -11.0139,5.70884 -0.4666,-9.62187 38.4684,-19.39385 z M 950.58085,677.1556 c 4.16795,0.0629 8.32054,0.12485 12.48852,0.19082 l 0.74408,7.77758 -12.10084,-0.5513 c -0.25746,-1.80713 -0.50322,-3.60322 -0.7626,-5.24823 -0.12792,-0.80917 -0.24258,-1.42579 -0.36818,-2.16891 z m 18.71672,0.34985 c 19.49493,0.39876 38.98193,1.31873 58.33253,5.32122 l 0.2808,2.67272 -1.7295,-0.4102 -7.0891,0.52681 0.1593,2.14305 -49.15743,-2.31484 -0.79694,-7.93873 z m 366.91303,-20.92571 c 19.7078,-1.39203 32.9493,2.61211 43.015,9.4434 l -20.4578,9.68486 -0.086,-9.52544 -4.6496,1.00844 1.0068,9.08442 -6.3631,4.16056 -0.2779,-7.64612 -8.779,0.65239 -0.1706,2.16806 3.6888,2.79259 c 0,0 0.1838,2.12362 0,3.97814 -0.1795,1.85408 -3.7,1.51798 -3.7,1.51798 l -4.0991,-8.31538 -5.0283,0.37367 -0.2327,1.88236 -5.182,2.20823 -0.9174,-7.8889 -2.5278,0.56043 -1.2915,-14.03591 c 5.7859,-1.06027 11.1208,-1.75583 16.0478,-2.10438 z m -384.14052,30.57753 12.02147,0.5986 0.9256,9.67006 -1.06099,-0.33515 -2.48288,-3.29673 -4.09592,5.11196 0.73074,4.25544 -4.03907,0.30015 c -0.33723,-3.05457 -0.79599,-6.76978 -1.30624,-10.88532 -0.22165,-1.78443 -0.44871,-3.62176 -0.69298,-5.41848 z m 18.25884,0.88081 49.11628,2.31788 c 0,0 1.7969,12.46966 1.9252,14.19582 0.1283,1.72617 -6.3522,-1.26831 -6.3522,-1.26831 l -1.2221,-10.31145 -2.1613,1.03105 0.2542,3.42094 -2.6454,0.65198 -0.06,4.77011 -14.71389,1.09342 -0.80561,-4.70579 -7.93446,1.41866 0.15803,-3.45208 -3.15543,-0.63543 0.25728,3.46211 -6.64626,0.9079 -0.28792,-3.87435 -2.23316,0.62136 0.1899,2.55527 -2.41641,0.38657 -1.26711,-12.58718 z m 431.60868,-25.89899 0.8596,8.22493 -8.9905,2.82296 -0.051,-3.47743 -4.1887,0.51826 0.2115,-3.28994 12.1591,-4.79929 z m -162.0399,30.6907 0.9419,8.2188 -12.1372,1.19174 -0.7899,-8.39569 11.9845,-1.0148 z m -15.117,1.24757 0.6371,8.57318 -11.0365,0.94434 -0.5665,-7.62466 10.966,-1.89234 z m 18.5469,-1.37826 11.7388,-0.41692 0.7011,7.20065 -11.696,0.99335 -0.744,-7.77759 z m 14.3551,-0.90117 9.4185,-0.4101 1.0747,6.09547 -9.6397,1.33786 -0.8537,-7.02321 z m -323.76582,28.24583 27.91526,-0.78949 -5.88966,4.95493 -19.45082,0.36748 z m 39.3578,-1.84681 3.09113,-0.22971 2.70807,6.88488 -6.37305,0.68061 0.57381,-7.3363 z m -1.9631,0.35288 -1.28218,6.72601 -9.02614,0.67076 z m 6.81889,-0.25832 13.33865,6.05402 -10.19549,0.55065 z m 12.31469,1.19833 36.30504,-0.54304 0.2879,3.87436 -29.88915,0.43885 z m -6.80199,7.17812 6.85701,-0.30256 0.71361,9.60301 -6.38829,0.47473 -1.18237,-9.77569 z m -21.27764,1.99519 7.43404,-0.34543 1.29649,8.52364 -7.2539,0.53906 -1.47667,-8.71779 z m 16.71047,-0.9934 1.05848,8.66555 -5.2419,0.84494 -1.16534,-8.98932 5.34872,-0.52167 z m 381.4405,-16.16167 0.8438,9.67613 c 0,0 -19.78,4.86056 -19.8254,4.25018 -0.046,-0.6104 -0.5134,-9.70069 -0.5134,-9.70069 l 19.4957,-4.22567 z m -34.4409,7.78096 0.839,9.05498 -21.3581,3.70114 -0.6278,-8.44914 21.1472,-4.30701 z m -36.8532,6.55159 0.4916,8.29366 -17.8612,2.23862 -0.9792,-8.71283 18.3482,-1.8189 z m -34.9852,3.80197 0.4842,8.74964 -17.2524,2.06967 -0.5086,-9.08003 z m -180.8262,14.34892 0.7931,8.43685 -7.7682,0.8671 -0.3484,-8.59412 7.324,-0.70986 z m 17.5089,-0.84573 0.7926,8.4369 -7.7683,0.86708 -0.3484,-8.5941 z m 110.0981,-8.01603 15.7442,-1.16998 0.5134,8.58183 -15.7394,1.79115 -0.5179,-9.20303 z m -23.4743,1.99284 0.8481,9.17848 -15.0665,1.36804 -0.6799,-9.1496 14.8986,-1.39694 z m -71.6075,5.6525 0.7929,8.43687 -7.7651,0.90825 -0.3514,-8.63528 7.3241,-0.70988 z m 14.961,-1.11178 0.7931,8.43686 -7.7652,0.90826 -0.3103,-8.63835 7.2829,-0.7068 z"
       id="path5231" />
    <flowRoot
       xml:space="preserve"
       id="flowRoot3057-8"
       style="font-style:normal;font-variant:normal;font-weight:bold;font-stretch:normal;line-height:0.01%;font-family:'Liberation Sans';-inkscape-font-specification:'Liberation Sans Bold';letter-spacing:0px;word-spacing:0px;display:inline;fill:#ffffff;fill-opacity:1;stroke:none"
       transform="rotate(-90,207.92384,-145.43594)"><flowRegion
         id="flowRegion3059-8"><rect
           id="rect3061-2"
           width="642.10529"
           height="44.736843"
           x="-976.3158"
           y="1102.0928"
           style="font-style:normal;font-variant:normal;font-weight:bold;font-stretch:normal;font-size:24px;font-family:'Liberation Sans';-inkscape-font-specification:'Liberation Sans Bold';fill:#ffffff" /></flowRegion><flowPara
         id="flowPara3063-4"
         style="font-size:24px;line-height:1.26999998">CC-by PARTI PIRATE</flowPara></flowRoot>    <g
       transform="matrix(4.1351472,0,0,-4.1351472,2172.2299,4426.729)"
       style="display:inline"
       id="g3530">
      <g
         transform="matrix(1.0413646,0,0,-1.0413646,-663.12158,941.2142)"
         style="fill:#8814cc;fill-opacity:1"
         id="g4572-6">
        <path
           d="m 319.59054,86.921465 c -10e-6,-1.643211 -0.3692,-2.95902 -1.10758,-3.947431 -0.73841,-0.988388 -1.83401,-1.482585 -3.28681,-1.482602 -0.47604,1.7e-5 -0.91646,0.01797 -1.32125,0.05397 -0.40482,0.036 -0.7384,0.07759 -1.00076,0.12482 v 9.609663 c 0.33358,0.214399 0.76836,0.393004 1.30436,0.535808 0.53598,0.142815 1.0776,0.21422 1.62487,0.214215 2.52477,5e-6 3.78716,-1.702807 3.78717,-5.108435 z m 5.42894,-0.142809 c -10e-6,1.452807 -0.17862,2.774616 -0.5358,3.965414 -0.35723,1.19081 -0.88104,2.21482 -1.57145,3.072036 -0.69045,0.857222 -1.54766,1.524029 -2.57166,2.000426 -1.02403,0.476392 -2.20284,0.714591 -3.53645,0.714591 -0.7384,0 -1.42919,-0.07158 -2.07237,-0.214756 -0.6432,-0.143173 -1.2624,-0.345577 -1.85761,-0.607213 v 7.072886 h -5.32211 v -24.7551 c 0.47603,-0.143156 1.02365,-0.28015 1.64286,-0.410987 0.6192,-0.130799 1.2682,-0.243814 1.947,-0.339036 0.6788,-0.09519 1.3694,-0.172587 2.07183,-0.232204 0.70241,-0.05957 1.37522,-0.08937 2.01841,-0.08939 1.548,1.6e-5 2.92922,0.23222 4.14365,0.696601 1.21442,0.464425 2.23843,1.119237 3.07204,1.964447 0.83359,0.84525 1.47059,1.875254 1.91104,3.090031 0.4404,1.214799 0.66061,2.572218 0.66062,4.072252 z"
           style="font-style:normal;font-variant:normal;font-weight:bold;font-stretch:normal;font-size:64px;line-height:125%;font-family:Ubuntu;-inkscape-font-specification:'Ubuntu Bold';text-align:center;letter-spacing:0px;word-spacing:0px;text-anchor:middle;fill:#8814cc;fill-opacity:1;stroke:none"
           id="path3286-7"
           inkscape:connector-curvature="0" />
        <path
           d="m 334.43292,96.173557 h -5.32211 V 77.383749 h 5.32211 z m 0.50038,-24.219836 c -10e-6,0.976795 -0.31561,1.744986 -0.9468,2.304576 -0.6312,0.55963 -1.37523,0.839434 -2.23207,0.839411 -0.85759,2.3e-5 -1.60198,-0.279781 -2.23318,-0.839411 -0.63119,-0.55959 -0.94679,-1.327781 -0.94679,-2.304576 0,-0.97602 0.3156,-1.743848 0.94679,-2.303483 0.6312,-0.559585 1.37559,-0.839389 2.23318,-0.839417 0.85684,2.8e-5 1.60087,0.279832 2.23207,0.839417 0.63119,0.559635 0.94679,1.327463 0.9468,2.303483 z"
           style="font-style:normal;font-variant:normal;font-weight:bold;font-stretch:normal;font-size:64px;line-height:125%;font-family:Ubuntu;-inkscape-font-specification:'Ubuntu Bold';text-align:center;letter-spacing:0px;word-spacing:0px;text-anchor:middle;fill:#8814cc;fill-opacity:1;stroke:none"
           id="path3288-5"
           inkscape:connector-curvature="0" />
        <path
           d="m 350.76008,82.098644 c -0.47605,-0.118446 -1.03565,-0.243272 -1.67883,-0.374467 -0.6432,-0.131166 -1.33362,-0.196755 -2.07128,-0.196772 -0.3336,1.7e-5 -0.73259,0.02981 -1.19699,0.08939 -0.46441,0.05961 -0.8158,0.125016 -1.05417,0.196226 V 96.173553 H 339.4367 V 78.384502 c 0.95206,-0.333565 2.0771,-0.649164 3.37511,-0.946795 1.29799,-0.297586 2.74498,-0.446396 4.34097,-0.446413 0.2856,1.7e-5 0.63082,0.0178 1.03564,0.05342 0.4048,0.03561 0.8096,0.08324 1.21442,0.14281 0.4048,0.05962 0.80961,0.131022 1.21443,0.214215 0.4048,0.08323 0.75001,0.184437 1.03564,0.303609 z"
           style="font-style:normal;font-variant:normal;font-weight:bold;font-stretch:normal;font-size:64px;line-height:125%;font-family:Ubuntu;-inkscape-font-specification:'Ubuntu Bold';text-align:center;letter-spacing:0px;word-spacing:0px;text-anchor:middle;fill:#8814cc;fill-opacity:1;stroke:none"
           id="path3290-0"
           inkscape:connector-curvature="0" />
        <path
           d="m 361.68664,92.45833 c 0.52399,0 1.02418,-0.01183 1.50059,-0.03544 0.47638,-0.02361 0.85739,-0.05941 1.14302,-0.107378 v -4.03682 c -0.21441,-0.04722 -0.536,-0.09466 -0.96478,-0.142268 -0.4288,-0.04761 -0.82162,-0.07139 -1.17845,-0.0714 -0.50002,1.1e-5 -0.97043,0.0298 -1.4112,0.08939 -0.44079,0.0596 -0.82779,0.172615 -1.16101,0.339035 -0.33323,0.166437 -0.59504,0.392641 -0.78545,0.678618 -0.19042,0.285988 -0.28563,0.643375 -0.28562,1.072162 -1e-5,0.832881 0.2798,1.410114 0.83942,1.731702 0.5596,0.321598 1.32743,0.482392 2.30348,0.482392 z m -0.42843,-15.574957 c 1.57198,1.6e-5 2.8818,0.178621 3.92944,0.535807 1.04762,0.357226 1.88704,0.869228 2.51824,1.536018 0.63118,0.666829 1.07778,1.476625 1.3398,2.429397 0.26198,0.952806 0.39298,2.012427 0.393,3.178878 v 11.073729 c -0.7624,0.167157 -1.8222,0.363745 -3.17942,0.58977 -1.35725,0.226026 -3.00065,0.339036 -4.9302,0.339036 -1.21443,0 -2.31566,-0.107016 -3.3037,-0.321046 -0.98804,-0.214036 -1.83944,-0.565245 -2.55421,-1.053632 -0.71478,-0.488386 -1.26258,-1.125577 -1.64341,-1.911573 -0.38082,-0.785995 -0.57123,-1.750232 -0.57123,-2.892711 0,-1.095957 0.22021,-2.024946 0.66063,-2.786963 0.44042,-0.762006 1.02983,-1.369219 1.76822,-1.821643 0.73839,-0.452397 1.5838,-0.779806 2.53623,-0.982221 0.95242,-0.202393 1.94064,-0.303598 2.96466,-0.303609 0.69114,1.1e-5 1.30454,0.0298 1.84017,0.08939 0.53562,0.05961 0.97022,0.137005 1.30382,0.232199 v -0.500376 c -10e-6,-0.90481 -0.27382,-1.631033 -0.82143,-2.178662 -0.54763,-0.547602 -1.50023,-0.821411 -2.85782,-0.821428 -0.90483,1.7e-5 -1.79785,0.06542 -2.67904,0.196226 -0.88121,0.130832 -1.6434,0.31543 -2.28659,0.553797 l -0.67807,-4.287555 c 0.30887,-0.09519 0.69551,-0.196393 1.15992,-0.303609 0.46439,-0.107177 0.97059,-0.202382 1.51857,-0.285614 0.54798,-0.0832 1.12557,-0.154604 1.7328,-0.214215 0.6072,-0.05958 1.22041,-0.08938 1.83962,-0.08939 z"
           style="font-style:normal;font-variant:normal;font-weight:bold;font-stretch:normal;font-size:64px;line-height:125%;font-family:Ubuntu;-inkscape-font-specification:'Ubuntu Bold';text-align:center;letter-spacing:0px;word-spacing:0px;text-anchor:middle;fill:#8814cc;fill-opacity:1;stroke:none"
           id="path3292-5"
           inkscape:connector-curvature="0" />
        <path
           d="m 374.07291,72.703743 5.3221,-0.856859 v 5.536865 h 6.39482 v 4.429276 h -6.39482 v 6.608485 c 0,1.119226 0.19659,2.012237 0.58978,2.679038 0.39317,0.666812 1.18498,1.000216 2.37543,1.00021 0.57195,6e-6 1.16154,-0.05342 1.76877,-0.160252 0.6072,-0.106831 1.16081,-0.255814 1.66084,-0.44696 l 0.75002,4.143656 c -0.6432,0.262362 -1.35761,0.48875 -2.14323,0.679165 -0.78565,0.190409 -1.75006,0.285614 -2.89326,0.285619 -1.45281,-5e-6 -2.65561,-0.196409 -3.60839,-0.589228 -0.9528,-0.392814 -1.71481,-0.940432 -2.28604,-1.642855 -0.57124,-0.702417 -0.97005,-1.553823 -1.19644,-2.554217 -0.22639,-1.000389 -0.33958,-2.107799 -0.33958,-3.32223 z"
           style="font-style:normal;font-variant:normal;font-weight:bold;font-stretch:normal;font-size:64px;line-height:125%;font-family:Ubuntu;-inkscape-font-specification:'Ubuntu Bold';text-align:center;letter-spacing:0px;word-spacing:0px;text-anchor:middle;fill:#8814cc;fill-opacity:1;stroke:none"
           id="path3294-3"
           inkscape:connector-curvature="0" />
        <path
           d="m 389.19654,86.921465 c 0,-1.66719 0.25601,-3.125808 0.76801,-4.37586 0.51201,-1.250025 1.18463,-2.29184 2.01787,-3.125457 0.83323,-0.833584 1.79165,-1.464775 2.87527,-1.89359 1.0836,-0.42877 2.197,-0.643169 3.34021,-0.643185 2.66722,1.6e-5 4.77484,0.815633 6.32287,2.446839 1.54799,1.631239 2.32199,4.030837 2.32201,7.198797 -2e-5,0.309609 -0.012,0.648829 -0.036,1.017653 -0.024,0.36884 -0.0476,0.696433 -0.0709,0.982768 h -12.07449 c 0.11918,1.095247 0.63118,1.964274 1.53602,2.607091 0.90481,0.642829 2.11924,0.964243 3.64327,0.964237 0.97676,6e-6 1.93555,-0.0892 2.87636,-0.26763 0.94078,-0.178415 1.70879,-0.398808 2.30403,-0.661175 l 0.71405,4.32244 c -0.28564,0.143172 -0.66665,0.286166 -1.14302,0.42897 -0.47642,0.14281 -1.00622,0.267815 -1.58944,0.375014 -0.58325,0.1072 -1.20826,0.196589 -1.87505,0.268178 -0.66683,0.07158 -1.33381,0.107378 -2.00097,0.107378 -1.69047,0 -3.1609,-0.250188 -4.41129,-0.75057 -1.25041,-0.500375 -2.28641,-1.185172 -3.10801,-2.054383 -0.82161,-0.869211 -1.42883,-1.899037 -1.82164,-3.089483 -0.39282,-1.190436 -0.58923,-2.476444 -0.58923,-3.858032 z m 12.50183,-2.036399 c -0.0233,-0.452039 -0.10049,-0.892458 -0.23166,-1.321262 -0.13119,-0.428781 -0.33378,-0.809784 -0.60776,-1.14302 -0.274,-0.333208 -0.61921,-0.607017 -1.03564,-0.821427 -0.41644,-0.214382 -0.93426,-0.321582 -1.55346,-0.321593 -0.59596,1.1e-5 -1.10815,0.101216 -1.53656,0.303604 -0.42844,0.202421 -0.78565,0.470235 -1.07162,0.803443 -0.28599,0.33323 -0.50638,0.720234 -0.66117,1.161004 -0.15481,0.440798 -0.26782,0.887212 -0.33904,1.339251 z"
           style="font-style:normal;font-variant:normal;font-weight:bold;font-stretch:normal;font-size:64px;line-height:125%;font-family:Ubuntu;-inkscape-font-specification:'Ubuntu Bold';text-align:center;letter-spacing:0px;word-spacing:0px;text-anchor:middle;fill:#8814cc;fill-opacity:1;stroke:none"
           id="path3296-7"
           inkscape:connector-curvature="0" />
      </g>
      <g
         transform="matrix(1.0413646,0,0,-1.0413646,-663.12158,941.2142)"
         style="fill:#ffffff;fill-opacity:1"
         id="g3272-7">
        <path
           d="m 243.84919,86.921465 c -2e-5,-2.167208 -0.53583,-3.834226 -1.60743,-5.001062 -1.07163,-1.166803 -2.50063,-1.750216 -4.28701,-1.750233 -1.00004,1.7e-5 -1.77985,0.03583 -2.33945,0.107378 -0.55962,0.07161 -1.00622,0.155 -1.3398,0.250194 v 11.716915 c 0.40481,0.332867 0.98821,0.654097 1.75024,0.963695 0.762,0.309604 1.59542,0.464403 2.50025,0.464403 0.95278,0 1.76857,-0.172604 2.44739,-0.517824 0.67878,-0.345208 1.23239,-0.821422 1.66084,-1.42864 0.42841,-0.607207 0.73801,-1.321613 0.92881,-2.14323 0.19076,-0.8216 0.28614,-1.708801 0.28616,-2.661596 z m 3.46449,0 c -2e-5,1.404846 -0.18462,2.702665 -0.55379,3.893463 -0.36922,1.19081 -0.91102,2.214825 -1.62541,3.072042 -0.71443,0.857222 -1.58964,1.524028 -2.62563,2.00042 -1.03602,0.476398 -2.22083,0.714591 -3.55443,0.714596 -1.07126,-5e-6 -2.01769,-0.142809 -2.83929,-0.428429 -0.82162,-0.28562 -1.43482,-0.559613 -1.83963,-0.821974 v 7.430457 h -3.32277 V 78.16975 c 0.78636,-0.190399 1.76894,-0.398797 2.94776,-0.625202 1.17881,-0.226366 2.54222,-0.33956 4.09024,-0.339582 1.42881,2.2e-5 2.71482,0.226226 3.85804,0.678617 1.14318,0.45243 2.1196,1.095437 2.92922,1.929021 0.8096,0.833612 1.43462,1.851812 1.87506,3.054594 0.4404,1.202809 0.66061,2.554228 0.66063,4.054267 z"
           style="font-style:normal;font-variant:normal;font-weight:normal;font-stretch:normal;font-size:64px;line-height:125%;font-family:Ubuntu;-inkscape-font-specification:Ubuntu;text-align:center;letter-spacing:0px;word-spacing:0px;text-anchor:middle;fill:#ffffff;fill-opacity:1;stroke:none"
           id="path3274-2"
           inkscape:connector-curvature="0" />
        <path
           d="m 258.3111,93.78068 c 0.78562,0 1.48205,-0.01797 2.08927,-0.05397 0.6072,-0.03594 1.11322,-0.101562 1.51804,-0.196772 v -5.536865 c -0.2384,-0.119183 -0.6254,-0.220382 -1.16101,-0.303609 -0.53564,-0.0832 -1.18464,-0.124815 -1.94701,-0.12482 -0.50002,5e-6 -1.02984,0.03578 -1.58944,0.107378 -0.55961,0.0716 -1.07162,0.220399 -1.53602,0.446419 -0.4644,0.226031 -0.85141,0.53545 -1.16101,0.928258 -0.3096,0.392825 -0.4644,0.910827 -0.4644,1.554007 0,1.191173 0.381,2.018963 1.14302,2.48336 0.76201,0.464408 1.7982,0.696607 3.10856,0.696607 z m -0.2867,-16.646572 c 1.3336,1.6e-5 2.45899,0.172626 3.37618,0.517818 0.91717,0.345236 1.65557,0.833439 2.21518,1.464618 0.5596,0.631214 0.95841,1.381415 1.19645,2.250609 0.23799,0.869228 0.357,1.827465 0.35702,2.874722 v 11.610089 c -0.28564,0.04795 -0.68445,0.113557 -1.19644,0.196767 -0.51202,0.08321 -1.08962,0.160615 -1.73279,0.232204 -0.6432,0.07158 -1.33981,0.136994 -2.08982,0.196225 -0.75003,0.05923 -1.49424,0.08885 -2.23262,0.08885 -1.04801,0 -2.01242,-0.107016 -2.89325,-0.321046 -0.88085,-0.214036 -1.64286,-0.55325 -2.28605,-1.017658 -0.64319,-0.464397 -1.14338,-1.07761 -1.50059,-1.839622 -0.3572,-0.762011 -0.53581,-1.679006 -0.5358,-2.75099 -1e-5,-1.02401 0.20839,-1.90521 0.62519,-2.643611 0.4168,-0.738385 0.98241,-1.333787 1.69682,-1.786212 0.71441,-0.452402 1.54782,-0.785806 2.50025,-1.00021 0.95243,-0.214388 1.95264,-0.321582 3.00064,-0.321593 0.33358,1.1e-5 0.67897,0.01797 1.03619,0.05397 0.35719,0.036 0.69659,0.08359 1.01819,0.14281 0.32159,0.05924 0.6014,0.112836 0.83942,0.160793 0.238,0.048 0.40461,0.08359 0.49984,0.106837 v -0.928805 c -2e-5,-0.547245 -0.0596,-1.088868 -0.17879,-1.624871 -0.1192,-0.535975 -0.33342,-1.012367 -0.64264,-1.429181 -0.30925,-0.416787 -0.73187,-0.75019 -1.26785,-1.000216 -0.536,-0.249987 -1.23278,-0.374992 -2.09035,-0.375009 -1.09525,1.7e-5 -2.05367,0.07742 -2.87527,0.232204 -0.82161,0.154816 -1.43483,0.315431 -1.83963,0.481846 l -0.39355,-2.750449 c 0.4288,-0.190393 1.14339,-0.374807 2.14378,-0.55325 1.00039,-0.178403 2.08382,-0.267613 3.25029,-0.26763 z"
           style="font-style:normal;font-variant:normal;font-weight:normal;font-stretch:normal;font-size:64px;line-height:125%;font-family:Ubuntu;-inkscape-font-specification:Ubuntu;text-align:center;letter-spacing:0px;word-spacing:0px;text-anchor:middle;fill:#ffffff;fill-opacity:1;stroke:none"
           id="path3276-2"
           inkscape:connector-curvature="0" />
        <path
           d="m 277.5108,77.204966 c 0.28561,2.2e-5 0.61302,0.0178 0.98223,0.05342 0.36918,0.03561 0.73239,0.08323 1.0896,0.142804 0.35719,0.05962 0.6846,0.119211 0.98223,0.178789 0.29759,0.05961 0.51798,0.113395 0.66117,0.161341 l -0.57233,2.893252 c -0.26165,-0.09519 -0.69607,-0.208382 -1.30327,-0.339582 -0.60723,-0.131161 -1.38723,-0.196756 -2.34001,-0.196767 -0.61921,1.1e-5 -1.23242,0.06561 -1.83962,0.196767 -0.60722,0.1312 -1.00604,0.22041 -1.19644,0.267636 v 15.61093 h -3.32278 V 78.384505 c 0.78636,-0.286328 1.76295,-0.5545 2.92978,-0.804526 1.16682,-0.249993 2.47663,-0.374992 3.92944,-0.375013 z"
           style="font-style:normal;font-variant:normal;font-weight:normal;font-stretch:normal;font-size:64px;line-height:125%;font-family:Ubuntu;-inkscape-font-specification:Ubuntu;text-align:center;letter-spacing:0px;word-spacing:0px;text-anchor:middle;fill:#ffffff;fill-opacity:1;stroke:none"
           id="path3278-1"
           inkscape:connector-curvature="0" />
        <path
           d="m 287.57396,77.59851 h 7.03801 v 2.786422 h -7.03801 v 8.572927 c 0,0.928817 0.0714,1.696823 0.21422,2.30403 0.1428,0.607218 0.3572,1.083431 0.64319,1.428639 0.28597,0.34522 0.64336,0.589229 1.07216,0.732039 0.42878,0.14281 0.9288,0.214215 1.50004,0.214215 1.00002,0 1.80364,-0.11301 2.41087,-0.339041 0.6072,-0.22602 1.02999,-0.386635 1.26839,-0.481845 l 0.64318,2.750448 c -0.3336,0.166426 -0.91719,0.374646 -1.75077,0.624655 -0.83361,0.250004 -1.78604,0.375009 -2.85729,0.375009 -1.2624,0 -2.3044,-0.160615 -3.126,-0.481845 -0.82161,-0.32123 -1.48242,-0.803438 -1.98243,-1.44663 -0.50002,-0.643185 -0.85123,-1.434991 -1.05363,-2.375434 -0.20241,-0.940426 -0.30361,-2.029847 -0.30361,-3.268261 V 72.418123 l 3.32168,-0.571239 z"
           style="font-style:normal;font-variant:normal;font-weight:normal;font-stretch:normal;font-size:64px;line-height:125%;font-family:Ubuntu;-inkscape-font-specification:Ubuntu;text-align:center;letter-spacing:0px;word-spacing:0px;text-anchor:middle;fill:#ffffff;fill-opacity:1;stroke:none"
           id="path3280-0"
           inkscape:connector-curvature="0" />
        <path
           d="m 302.16125,96.173557 h -3.32278 V 77.59851 h 3.32278 z m -1.67883,-21.933796 c -0.59523,2.2e-5 -1.10124,-0.196387 -1.51803,-0.589223 -0.41681,-0.392797 -0.62521,-0.922426 -0.62521,-1.588892 0,-0.667148 0.2084,-1.197139 0.62521,-1.589981 0.41679,-0.392791 0.9228,-0.5892 1.51803,-0.589228 0.59521,2.8e-5 1.10123,0.196437 1.51803,0.589228 0.4168,0.392842 0.62519,0.922833 0.6252,1.589981 -1e-5,0.666466 -0.2084,1.196095 -0.6252,1.588892 -0.4168,0.392836 -0.92282,0.589245 -1.51803,0.589223 z"
           style="font-style:normal;font-variant:normal;font-weight:normal;font-stretch:normal;font-size:64px;line-height:125%;font-family:Ubuntu;-inkscape-font-specification:Ubuntu;text-align:center;letter-spacing:0px;word-spacing:0px;text-anchor:middle;fill:#ffffff;fill-opacity:1;stroke:none"
           id="path3282-0"
           inkscape:connector-curvature="0" />
      </g>
      <g
         transform="matrix(1.0413646,0,0,-1.0413646,-663.12158,941.2142)"
         style="fill:#ffffff;fill-opacity:1"
         id="g3298-3">
        <path
           d="m 415.23693,94.245083 c -10e-6,0.64246 -0.21441,1.201889 -0.64319,1.67828 -0.4288,0.476398 -1.01239,0.714597 -1.75078,0.714597 -0.73767,0 -1.3209,-0.238199 -1.74969,-0.714597 -0.42879,-0.476391 -0.64319,-1.03582 -0.64318,-1.67828 -10e-6,-0.643186 0.21439,-1.202978 0.64318,-1.679375 0.42879,-0.476392 1.01202,-0.714591 1.74969,-0.714591 0.73839,0 1.32198,0.238199 1.75078,0.714591 0.42878,0.476397 0.64318,1.036189 0.64319,1.679375 z"
           style="font-style:normal;font-variant:normal;font-weight:normal;font-stretch:normal;font-size:64px;line-height:125%;font-family:Ubuntu;-inkscape-font-specification:Ubuntu;text-align:center;letter-spacing:0px;word-spacing:0px;text-anchor:middle;fill:#ffffff;fill-opacity:1;stroke:none"
           id="path3300-5"
           inkscape:connector-curvature="0" />
        <path
           d="m 427.34957,68.45325 c 0.97676,2.8e-5 1.81636,0.07143 2.51879,0.214215 0.70241,0.142837 1.19643,0.273837 1.48206,0.393003 l -0.60722,2.858368 c -0.28563,-0.14315 -0.69043,-0.280328 -1.21442,-0.411534 -0.52401,-0.131156 -1.16684,-0.196745 -1.92847,-0.196767 -1.54802,2.2e-5 -2.63163,0.42282 -3.25083,1.268388 -0.61921,0.845612 -0.92881,1.982816 -0.9288,3.411618 v 1.607969 h 7.14374 v 2.786422 h -7.14374 V 96.173557 H 420.0979 V 75.919683 c 0,-2.381591 0.58359,-4.221397 1.75078,-5.519423 1.16718,-1.297981 3.00081,-1.946982 5.50089,-1.94701 z"
           style="font-style:normal;font-variant:normal;font-weight:normal;font-stretch:normal;font-size:64px;line-height:125%;font-family:Ubuntu;-inkscape-font-specification:Ubuntu;text-align:center;letter-spacing:0px;word-spacing:0px;text-anchor:middle;fill:#ffffff;fill-opacity:1;stroke:none"
           id="path3302-0"
           inkscape:connector-curvature="0" />
        <path
           d="m 440.77148,77.204966 c 0.28561,2.2e-5 0.61302,0.0178 0.98223,0.05342 0.36918,0.03561 0.73239,0.08323 1.0896,0.142804 0.35719,0.05962 0.6846,0.119211 0.98223,0.178789 0.29759,0.05961 0.51798,0.113395 0.66117,0.161341 l -0.57233,2.893252 c -0.26165,-0.09519 -0.69607,-0.208382 -1.30327,-0.339582 -0.60723,-0.131161 -1.38723,-0.196756 -2.34001,-0.196767 -0.61921,1.1e-5 -1.23242,0.06561 -1.83962,0.196767 -0.60722,0.1312 -1.00604,0.22041 -1.19644,0.267636 v 15.61093 h -3.32278 V 78.384505 c 0.78636,-0.286328 1.76295,-0.5545 2.92978,-0.804526 1.16682,-0.249993 2.47663,-0.374992 3.92944,-0.375013 z"
           style="font-style:normal;font-variant:normal;font-weight:normal;font-stretch:normal;font-size:64px;line-height:125%;font-family:Ubuntu;-inkscape-font-specification:Ubuntu;text-align:center;letter-spacing:0px;word-spacing:0px;text-anchor:middle;fill:#ffffff;fill-opacity:1;stroke:none"
           id="path3304-3"
           inkscape:connector-curvature="0" />
      </g>
      <g
         id="g16313-8"
         transform="translate(43.845516,-219.64823)">
        <circle
           r="281.85272"
           cy="322.94876"
           cx="339.37369"
           transform="matrix(0.10662652,0,0,-0.10662652,-540.46006,1103.5207)"
           id="path3308-0"
           style="fill:#ffffff;fill-opacity:1;fill-rule:evenodd;stroke:none" />
        <g
           id="g16309-3"
           transform="translate(-0.2426447,-0.81390252)">
          <path
             id="path3083-1"
             d="m -504.03278,1045.3338 c -13.56095,0 -24.56009,10.9982 -24.56009,24.5651 0,13.567 10.99914,24.5651 24.56009,24.5651 13.56896,0 24.56489,-10.9981 24.56489,-24.5651 0,-13.5669 -10.99593,-24.5651 -24.56489,-24.5651 m 0,51.9443 c -15.1176,0 -27.3768,-12.2537 -27.3768,-27.3792 0,-15.1191 12.2592,-27.3776 27.3768,-27.3776 15.1208,0 27.38,12.2601 27.38,27.3776 0,15.1271 -12.2608,27.3792 -27.38,27.3792"
             inkscape:connector-curvature="0"
             style="fill:#000000;fill-opacity:1" />
          <path
             id="path3085-1"
             d="m -507.95566,1066.7673 c -1.43321,-1.0053 -2.62274,-1.9418 -3.60546,-2.8397 v 19.0396 c 1.9911,-0.4217 4.09922,-1.2828 5.55327,-2.9921 3.575,-4.2235 2.36303,-10.1836 -1.94781,-13.2078 m 15.62739,16.7579 c -5.92199,3.3224 -13.34292,3.3512 -19.23125,1.8424 v 2.5495 h -2.5554 v -3.3288 c -1.09815,-0.3977 -2.11134,-0.845 -3.01551,-1.3341 0,0 1.27129,0.1571 3.01551,0.048 v -22.2834 c -1.27129,-1.9546 -1.57589,-3.8579 -1.2745,-6.0547 0.33506,-2.4549 2.18829,-4.0952 3.64875,-5.3075 -0.86089,2.4774 -0.92662,4.7287 -0.67332,6.0932 0.48415,2.5463 1.97667,4.3759 8.41968,5.7725 6.68669,1.4415 14.6094,2.1086 17.22733,8.601 1.19273,2.9664 1.93178,9.1959 -5.56129,13.4018"
             inkscape:connector-curvature="0"
             style="fill:#000000;fill-opacity:1" />
        </g>
      </g>
    </g>
  </g>
</svg>
