<?xml version="1.0" encoding="UTF-8" standalone="no"?>
<!-- Created with Inkscape (http://www.inkscape.org/) -->

<svg
   xmlns:dc="http://purl.org/dc/elements/1.1/"
   xmlns:cc="http://creativecommons.org/ns#"
   xmlns:rdf="http://www.w3.org/1999/02/22-rdf-syntax-ns#"
   xmlns:svg="http://www.w3.org/2000/svg"
   xmlns="http://www.w3.org/2000/svg"
   xmlns:sodipodi="http://sodipodi.sourceforge.net/DTD/sodipodi-0.dtd"
   xmlns:inkscape="http://www.inkscape.org/namespaces/inkscape"
   version="1.1"
   id="svg2"
   xml:space="preserve"
   width="793.70667"
   height="1122.52"
   viewBox="0 0 793.70667 1122.52"
   sodipodi:docname="Circulaire_Ronan_verso.svg"
   inkscape:version="0.91 r13725"
   inkscape:export-filename="C:\Users\Weisenberger\Documents\Rapport de stage\privé\Circulaire_verso_Nereuil-avec contact.png"
   inkscape:export-xdpi="50"
   inkscape:export-ydpi="50"><metadata
     id="metadata8"><rdf:RDF><cc:Work
         rdf:about=""><dc:format>image/svg+xml</dc:format><dc:type
           rdf:resource="http://purl.org/dc/dcmitype/StillImage" /><dc:title /></cc:Work></rdf:RDF></metadata><defs
     id="defs6"><clipPath
       clipPathUnits="userSpaceOnUse"
       id="clipPath20"><path
         d="M 0,841.89 H 595.28 V 0 H 0 Z"
         id="path18"
         inkscape:connector-curvature="0" /></clipPath><clipPath
       clipPathUnits="userSpaceOnUse"
       id="clipPath28"><path
         d="M 408.836,1023.11 H 547.771 V 754.342 H 408.836 Z"
         id="path26"
         inkscape:connector-curvature="0" /></clipPath><clipPath
       clipPathUnits="userSpaceOnUse"
       id="clipPath44"><path
         d="M 323.576,834.414 H 634.835 V 672.361 H 323.576 Z"
         id="path42"
         inkscape:connector-curvature="0" /></clipPath><clipPath
       clipPathUnits="userSpaceOnUse"
       id="clipPath60"><path
         d="m 411.055,755.519 h 62.451 v -82.923 h -62.451 z"
         id="path58"
         inkscape:connector-curvature="0" /></clipPath><clipPath
       clipPathUnits="userSpaceOnUse"
       id="clipPath76"><path
         d="M 17.7614,796.905 H 325.513 V 674.28 H 17.7614 Z"
         id="path74"
         inkscape:connector-curvature="0" /></clipPath><clipPath
       clipPathUnits="userSpaceOnUse"
       id="clipPath92"><path
         d="M 323.904,1004.35 H 515.197 V 736.49 H 323.904 Z"
         id="path90"
         inkscape:connector-curvature="0" /></clipPath><clipPath
       clipPathUnits="userSpaceOnUse"
       id="clipPath108"><path
         d="M 203.325,861.392 H 343.791 V 765.867 H 203.325 Z"
         id="path106"
         inkscape:connector-curvature="0" /></clipPath><clipPath
       clipPathUnits="userSpaceOnUse"
       id="clipPath124"><path
         d="M 58.6231,926.094 H 205.05 V 795.311 H 58.6231 Z"
         id="path122"
         inkscape:connector-curvature="0" /></clipPath><clipPath
       clipPathUnits="userSpaceOnUse"
       id="clipPath140"><path
         d="M 55.5702,799.466 H 65.5911 V 789.445 H 55.5702 Z"
         id="path138"
         inkscape:connector-curvature="0" /></clipPath><clipPath
       clipPathUnits="userSpaceOnUse"
       id="clipPath156"><path
         d="m 199.701,770.085 h 10.021 v -10.021 h -10.021 z"
         id="path154"
         inkscape:connector-curvature="0" /></clipPath><clipPath
       clipPathUnits="userSpaceOnUse"
       id="clipPath172"><path
         d="m 319.389,730.119 h 10.021 v -10.02 h -10.021 z"
         id="path170"
         inkscape:connector-curvature="0" /></clipPath><clipPath
       clipPathUnits="userSpaceOnUse"
       id="clipPath188"><path
         d="m 415.01,820.48 h 10.021 V 810.459 H 415.01 Z"
         id="path186"
         inkscape:connector-curvature="0" /></clipPath><clipPath
       clipPathUnits="userSpaceOnUse"
       id="clipPath204"><path
         d="m 468.646,759.951 h 10.021 V 749.93 h -10.021 z"
         id="path202"
         inkscape:connector-curvature="0" /></clipPath><clipPath
       clipPathUnits="userSpaceOnUse"
       id="clipPath220"><path
         d="M -33.2226,915.681 H 22.8487 V 804.62 h -56.0713 z"
         id="path218"
         inkscape:connector-curvature="0" /></clipPath><clipPath
       clipPathUnits="userSpaceOnUse"
       id="clipPath236"><path
         d="M -9.7693,912.067 H 22.7231 V 778.089 H -9.7693 Z"
         id="path234"
         inkscape:connector-curvature="0" /></clipPath><clipPath
       clipPathUnits="userSpaceOnUse"
       id="clipPath252"><path
         d="M 20.1332,1033.93 H 215.934 V 714.931 H 20.1332 Z"
         id="path250"
         inkscape:connector-curvature="0" /></clipPath><clipPath
       clipPathUnits="userSpaceOnUse"
       id="clipPath268"><path
         d="M 20.3518,912.423 H 353.811 V 758.863 H 20.3518 Z"
         id="path266"
         inkscape:connector-curvature="0" /></clipPath><clipPath
       clipPathUnits="userSpaceOnUse"
       id="clipPath284"><path
         d="M 69.966,912.532 H 354.152 V 673.978 H 69.966 Z"
         id="path282"
         inkscape:connector-curvature="0" /></clipPath><clipPath
       clipPathUnits="userSpaceOnUse"
       id="clipPath300"><path
         d="m 131.046,942.268 h 419.62 v -247.89 h -419.62 z"
         id="path298"
         inkscape:connector-curvature="0" /></clipPath><clipPath
       clipPathUnits="userSpaceOnUse"
       id="clipPath316"><path
         d="M 194.832,958.463 H 354.168 V 785.84 H 194.832 Z"
         id="path314"
         inkscape:connector-curvature="0" /></clipPath><clipPath
       clipPathUnits="userSpaceOnUse"
       id="clipPath332"><path
         d="M 352.248,961.828 H 561.171 V 673.844 H 352.248 Z"
         id="path330"
         inkscape:connector-curvature="0" /></clipPath><clipPath
       clipPathUnits="userSpaceOnUse"
       id="clipPath348"><path
         d="m 504.993,942.274 h 97.359 v -174.16 h -97.359 z"
         id="path346"
         inkscape:connector-curvature="0" /></clipPath><clipPath
       clipPathUnits="userSpaceOnUse"
       id="clipPath364"><path
         d="m 298.635,705.886 v 0 0 z"
         id="path362"
         inkscape:connector-curvature="0" /></clipPath><clipPath
       clipPathUnits="userSpaceOnUse"
       id="clipPath376"><path
         d="m 17.817,795.309 h 5.4814 v -5.481 H 17.817 Z"
         id="path374"
         inkscape:connector-curvature="0" /></clipPath><clipPath
       clipPathUnits="userSpaceOnUse"
       id="clipPath392"><path
         d="m 192.179,788.824 h 5.481 v -5.481 h -5.481 z"
         id="path390"
         inkscape:connector-curvature="0" /></clipPath><clipPath
       clipPathUnits="userSpaceOnUse"
       id="clipPath408"><path
         d="m 128.791,761.94 h 5.481 v -5.482 h -5.481 z"
         id="path406"
         inkscape:connector-curvature="0" /></clipPath><clipPath
       clipPathUnits="userSpaceOnUse"
       id="clipPath424"><path
         d="m 350.915,846.012 h 5.481 v -5.481 h -5.481 z"
         id="path422"
         inkscape:connector-curvature="0" /></clipPath><clipPath
       clipPathUnits="userSpaceOnUse"
       id="clipPath440"><path
         d="m 502.902,776.501 h 5.481 v -5.481 h -5.481 z"
         id="path438"
         inkscape:connector-curvature="0" /></clipPath><clipPath
       clipPathUnits="userSpaceOnUse"
       id="clipPath456"><path
         d="m 295.848,708.859 h 5.481 v -5.481 h -5.481 z"
         id="path454"
         inkscape:connector-curvature="0" /></clipPath><clipPath
       clipPathUnits="userSpaceOnUse"
       id="clipPath480"><path
         d="M 0,841.89 H 595.28 V 0 H 0 Z"
         id="path478"
         inkscape:connector-curvature="0" /></clipPath></defs><sodipodi:namedview
     pagecolor="#ffffff"
     bordercolor="#666666"
     borderopacity="1"
     objecttolerance="10"
     gridtolerance="10"
     guidetolerance="10"
     inkscape:pageopacity="0"
     inkscape:pageshadow="2"
     inkscape:window-width="1157"
     inkscape:window-height="1127"
     id="namedview4"
     showgrid="false"
     inkscape:zoom="0.71"
     inkscape:cx="293.7067"
     inkscape:cy="549.43008"
     inkscape:window-x="187"
     inkscape:window-y="100"
     inkscape:window-maximized="0"
     inkscape:current-layer="g10" /><g
     id="g10"
     inkscape:groupmode="layer"
     inkscape:label="Partipirate2-2"
     transform="matrix(1.3333333,0,0,-1.3333333,0,1122.52)"><path
       d="M -1.2253522,748.208 H 598.28 V 841.89 H -1.2253522 Z"
       style="fill:#6e3d8c;fill-opacity:1;fill-rule:nonzero;stroke:none;stroke-width:1.00354278"
       id="path12"
       inkscape:connector-curvature="0" /><g
       id="g14"><g
         id="g16"
         clip-path="url(#clipPath20)"><g
           id="g22"><g
             id="g24" /><g
             id="g36"><g
               clip-path="url(#clipPath28)"
               id="g34"
               style="opacity:0.10000598"><g
                 transform="translate(482.1963,1022.7128)"
                 id="g32"><path
                   d="m 0,0 -23.169,-19.138 -49.659,-82.767 10.337,-104.772 53.387,-60.827 L 65,-147.425 32.678,-63.766 54.646,-64.44"
                   style="fill:none;stroke:#b7b6b7;stroke-width:1.03499997;stroke-linecap:butt;stroke-linejoin:miter;stroke-miterlimit:10;stroke-dasharray:none;stroke-opacity:1"
                   id="path30"
                   inkscape:connector-curvature="0" /></g></g></g></g><g
           id="g38"><g
             id="g40" /><g
             id="g52"><g
               clip-path="url(#clipPath44)"
               id="g50"
               style="opacity:0.10000598"><g
                 transform="translate(634.4961,834.0233)"
                 id="g48"><path
                   d="m 0,0 -47.192,-40.865 -114.212,-37.949 -53.387,60.826 -95.289,-79.466 87.053,-63.664 91.471,14.711"
                   style="fill:none;stroke:#b7b6b7;stroke-width:1.03499997;stroke-linecap:butt;stroke-linejoin:miter;stroke-miterlimit:10;stroke-dasharray:none;stroke-opacity:1"
                   id="path46"
                   inkscape:connector-curvature="0" /></g></g></g></g><g
           id="g54"><g
             id="g56" /><g
             id="g68"><g
               clip-path="url(#clipPath60)"
               id="g66"
               style="opacity:0.10000598"><g
                 transform="translate(411.4687,672.9056)"
                 id="g64"><path
                   d="M 0,0 61.623,82.303"
                   style="fill:none;stroke:#b7b6b7;stroke-width:1.03499997;stroke-linecap:butt;stroke-linejoin:miter;stroke-miterlimit:10;stroke-dasharray:none;stroke-opacity:1"
                   id="path62"
                   inkscape:connector-curvature="0" /></g></g></g></g><g
           id="g70"><g
             id="g72" /><g
             id="g84"><g
               clip-path="url(#clipPath76)"
               id="g82"
               style="opacity:0.10000598"><g
                 transform="translate(18.1499,749.2601)"
                 id="g80"><path
                   d="M 0,0 41.135,46.844 127.379,-58.86 234.91,-74.434 306.266,-12.69 185.692,16.613 127.379,-58.86"
                   style="fill:none;stroke:#b7b6b7;stroke-width:1.03499997;stroke-linecap:butt;stroke-linejoin:miter;stroke-miterlimit:10;stroke-dasharray:none;stroke-opacity:1"
                   id="path78"
                   inkscape:connector-curvature="0" /></g></g></g></g><g
           id="g86"><g
             id="g88" /><g
             id="g100"><g
               clip-path="url(#clipPath92)"
               id="g98"
               style="opacity:0.10000598"><g
                 transform="translate(324.416,736.5697)"
                 id="g96"><path
                   d="m 0,0 19.332,124.307 65.62,59.931 49.659,82.767 55.847,-44.628"
                   style="fill:none;stroke:#b7b6b7;stroke-width:1.03499997;stroke-linecap:butt;stroke-linejoin:miter;stroke-miterlimit:10;stroke-dasharray:none;stroke-opacity:1"
                   id="path94"
                   inkscape:connector-curvature="0" /></g></g></g></g><g
           id="g102"><g
             id="g104" /><g
             id="g116"><g
               clip-path="url(#clipPath108)"
               id="g114"
               style="opacity:0.10000598"><g
                 transform="translate(203.8423,765.8729)"
                 id="g112"><path
                   d="M 0,0 1.03,83.583 139.906,95.004"
                   style="fill:none;stroke:#b7b6b7;stroke-width:1.03499997;stroke-linecap:butt;stroke-linejoin:miter;stroke-miterlimit:10;stroke-dasharray:none;stroke-opacity:1"
                   id="path110"
                   inkscape:connector-curvature="0" /></g></g></g></g><g
           id="g118"><g
             id="g120" /><g
             id="g132"><g
               clip-path="url(#clipPath124)"
               id="g130"
               style="opacity:0.10000598"><g
                 transform="translate(204.8721,849.4559)"
                 id="g128"><path
                   d="M 0,0 -145.587,-53.352 -123.153,76.55"
                   style="fill:none;stroke:#b7b6b7;stroke-width:1.03499997;stroke-linecap:butt;stroke-linejoin:miter;stroke-miterlimit:10;stroke-dasharray:none;stroke-opacity:1"
                   id="path126"
                   inkscape:connector-curvature="0" /></g></g></g></g><g
           id="g134"><g
             id="g136" /><g
             id="g148"><g
               clip-path="url(#clipPath140)"
               id="g146"
               style="opacity:0.19999701"><g
                 transform="translate(65.4087,795.7894)"
                 id="g144"><path
                   d="m 0,0 c 0.737,-2.667 -0.827,-5.426 -3.494,-6.163 -2.666,-0.736 -5.425,0.828 -6.162,3.495 -0.737,2.666 0.827,5.425 3.493,6.162 C -3.496,4.231 -0.737,2.667 0,0"
                   style="fill:#e2e1e2;fill-opacity:1;fill-rule:nonzero;stroke:none"
                   id="path142"
                   inkscape:connector-curvature="0" /></g></g></g></g><g
           id="g150"><g
             id="g152" /><g
             id="g164"><g
               clip-path="url(#clipPath156)"
               id="g162"
               style="opacity:0.19999701"><g
                 transform="translate(209.5396,766.4091)"
                 id="g160"><path
                   d="m 0,0 c 0.737,-2.667 -0.827,-5.426 -3.494,-6.163 -2.666,-0.736 -5.425,0.828 -6.162,3.495 -0.737,2.666 0.827,5.425 3.493,6.162 C -3.496,4.231 -0.737,2.667 0,0"
                   style="fill:#e2e1e2;fill-opacity:1;fill-rule:nonzero;stroke:none"
                   id="path158"
                   inkscape:connector-curvature="0" /></g></g></g></g><g
           id="g166"><g
             id="g168" /><g
             id="g180"><g
               clip-path="url(#clipPath172)"
               id="g178"
               style="opacity:0.19999701"><g
                 transform="translate(329.2275,726.4432)"
                 id="g176"><path
                   d="m 0,0 c 0.737,-2.667 -0.827,-5.425 -3.494,-6.163 -2.666,-0.736 -5.426,0.828 -6.162,3.495 -0.738,2.666 0.827,5.425 3.493,6.162 C -3.496,4.231 -0.737,2.667 0,0"
                   style="fill:#e2e1e2;fill-opacity:1;fill-rule:nonzero;stroke:none"
                   id="path174"
                   inkscape:connector-curvature="0" /></g></g></g></g><g
           id="g182"><g
             id="g184" /><g
             id="g196"><g
               clip-path="url(#clipPath188)"
               id="g194"
               style="opacity:0.19999701"><g
                 transform="translate(424.8486,816.8041)"
                 id="g192"><path
                   d="m 0,0 c 0.737,-2.667 -0.827,-5.426 -3.493,-6.163 -2.667,-0.736 -5.426,0.828 -6.163,3.494 -0.737,2.667 0.827,5.426 3.494,6.163 C -3.495,4.23 -0.736,2.667 0,0"
                   style="fill:#e2e1e2;fill-opacity:1;fill-rule:nonzero;stroke:none"
                   id="path190"
                   inkscape:connector-curvature="0" /></g></g></g></g><g
           id="g198"><g
             id="g200" /><g
             id="g212"><g
               clip-path="url(#clipPath204)"
               id="g210"
               style="opacity:0.19999701"><g
                 transform="translate(478.4844,756.2753)"
                 id="g208"><path
                   d="m 0,0 c 0.737,-2.667 -0.827,-5.426 -3.494,-6.163 -2.666,-0.736 -5.426,0.828 -6.162,3.494 -0.738,2.667 0.827,5.426 3.494,6.163 C -3.496,4.23 -0.737,2.667 0,0"
                   style="fill:#e2e1e2;fill-opacity:1;fill-rule:nonzero;stroke:none"
                   id="path206"
                   inkscape:connector-curvature="0" /></g></g></g></g><g
           id="g214"><g
             id="g216" /><g
             id="g228"><g
               clip-path="url(#clipPath220)"
               id="g226"
               style="opacity:0.30000299"><g
                 transform="translate(7.2085,915.4286)"
                 id="g224"><path
                   d="M 0,0 15.256,-3.366 -40.201,-110.69"
                   style="fill:none;stroke:#807f7f;stroke-width:0.51700002;stroke-linecap:butt;stroke-linejoin:miter;stroke-miterlimit:10;stroke-dasharray:none;stroke-opacity:1"
                   id="path222"
                   inkscape:connector-curvature="0" /></g></g></g></g><g
           id="g230"><g
             id="g232" /><g
             id="g244"><g
               clip-path="url(#clipPath236)"
               id="g242"
               style="opacity:0.30000299"><g
                 transform="translate(-9.6592,778.3231)"
                 id="g240"><path
                   d="M 0,0 30.085,14.134 32.124,133.74"
                   style="fill:none;stroke:#807f7f;stroke-width:0.51700002;stroke-linecap:butt;stroke-linejoin:miter;stroke-miterlimit:10;stroke-dasharray:none;stroke-opacity:1"
                   id="path238"
                   inkscape:connector-curvature="0" /></g></g></g></g><g
           id="g246"><g
             id="g248" /><g
             id="g260"><g
               clip-path="url(#clipPath252)"
               id="g258"
               style="opacity:0.30000299"><g
                 transform="translate(42.7915,715.0028)"
                 id="g256"><path
                   d="m 0,0 -22.366,77.454 129.552,119.659 65.567,46.149 -69.028,75.489"
                   style="fill:none;stroke:#807f7f;stroke-width:0.51700002;stroke-linecap:butt;stroke-linejoin:miter;stroke-miterlimit:10;stroke-dasharray:none;stroke-opacity:1"
                   id="path254"
                   inkscape:connector-curvature="0" /></g></g></g></g><g
           id="g262"><g
             id="g264" /><g
             id="g276"><g
               clip-path="url(#clipPath268)"
               id="g274"
               style="opacity:0.30000299"><g
                 transform="translate(353.6562,843.2719)"
                 id="g272"><path
                   d="M 0,0 V 0 L -52.796,39.456 -203.679,68.844 -222.125,-84.073 -333.23,-50.815"
                   style="fill:none;stroke:#807f7f;stroke-width:0.51700002;stroke-linecap:butt;stroke-linejoin:miter;stroke-miterlimit:10;stroke-dasharray:none;stroke-opacity:1"
                   id="path270"
                   inkscape:connector-curvature="0" /></g></g></g></g><g
           id="g278"><g
             id="g280" /><g
             id="g292"><g
               clip-path="url(#clipPath284)"
               id="g290"
               style="opacity:0.30000299"><g
                 transform="translate(70.1665,683.8016)"
                 id="g288"><path
                   d="M 0,0 61.365,75.397 124.753,102.282 79.811,228.314 283.49,159.47 161.21,46.978 128.213,18.087 8.084,-9.572"
                   style="fill:none;stroke:#807f7f;stroke-width:0.51700002;stroke-linecap:butt;stroke-linejoin:miter;stroke-miterlimit:10;stroke-dasharray:none;stroke-opacity:1"
                   id="path286"
                   inkscape:connector-curvature="0" /></g></g></g></g><g
           id="g294"><g
             id="g296" /><g
             id="g308"><g
               clip-path="url(#clipPath300)"
               id="g306"
               style="opacity:0.30000299"><g
                 transform="translate(194.9194,786.0839)"
                 id="g304"><path
                   d="m 0,0 -63.388,-26.885 66.848,-57.31 100.255,15.998 55.022,125.385 14.401,-86.229 119.217,-62.28 17.731,78.519 45.411,168.919"
                   style="fill:none;stroke:#807f7f;stroke-width:0.51700002;stroke-linecap:butt;stroke-linejoin:miter;stroke-miterlimit:10;stroke-dasharray:none;stroke-opacity:1"
                   id="path302"
                   inkscape:connector-curvature="0" /></g></g></g></g><g
           id="g310"><g
             id="g312" /><g
             id="g324"><g
               clip-path="url(#clipPath316)"
               id="g322"
               style="opacity:0.30000299"><g
                 transform="translate(215.5449,958.2645)"
                 id="g320"><path
                   d="M 0,0 138.111,-114.993 -20.625,-172.181"
                   style="fill:none;stroke:#807f7f;stroke-width:0.51700002;stroke-linecap:butt;stroke-linejoin:miter;stroke-miterlimit:10;stroke-dasharray:none;stroke-opacity:1"
                   id="path318"
                   inkscape:connector-curvature="0" /></g></g></g></g><g
           id="g326"><g
             id="g328" /><g
             id="g340"><g
               clip-path="url(#clipPath332)"
               id="g338"
               style="opacity:0.30000299"><g
                 transform="translate(561.1016,674.0927)"
                 id="g336"><path
                   d="M 0,0 -73.827,20.67 -207.445,169.179 -31.994,60.303 -123.003,287.639"
                   style="fill:none;stroke:#807f7f;stroke-width:0.51700002;stroke-linecap:butt;stroke-linejoin:miter;stroke-miterlimit:10;stroke-dasharray:none;stroke-opacity:1"
                   id="path334"
                   inkscape:connector-curvature="0" /></g></g></g></g><g
           id="g342"><g
             id="g344" /><g
             id="g356"><g
               clip-path="url(#clipPath348)"
               id="g354"
               style="opacity:0.30000299"><g
                 transform="translate(550.416,942.201)"
                 id="g352"><path
                   d="m 0,0 51.584,-173.81 -96.994,4.891"
                   style="fill:none;stroke:#807f7f;stroke-width:0.51700002;stroke-linecap:butt;stroke-linejoin:miter;stroke-miterlimit:10;stroke-dasharray:none;stroke-opacity:1"
                   id="path350"
                   inkscape:connector-curvature="0" /></g></g></g></g><g
           id="g358"><g
             id="g360" /><g
             id="g368"><g
               clip-path="url(#clipPath364)"
               id="g366"
               style="opacity:0.30000299" /></g></g><g
           id="g370"><g
             id="g372" /><g
             id="g384"><g
               clip-path="url(#clipPath376)"
               id="g382"
               style="opacity:0.30000299"><g
                 transform="translate(22.6514,794.3368)"
                 id="g380"><path
                   d="m 0,0 c 0.977,-1.157 0.831,-2.886 -0.325,-3.862 -1.157,-0.977 -2.886,-0.831 -3.862,0.325 -0.977,1.157 -0.832,2.886 0.325,3.862 C -2.706,1.302 -0.977,1.156 0,0"
                   style="fill:#bcbbbc;fill-opacity:1;fill-rule:nonzero;stroke:none"
                   id="path378"
                   inkscape:connector-curvature="0" /></g></g></g></g><g
           id="g386"><g
             id="g388" /><g
             id="g400"><g
               clip-path="url(#clipPath392)"
               id="g398"
               style="opacity:0.30000299"><g
                 transform="translate(197.0132,787.8519)"
                 id="g396"><path
                   d="m 0,0 c 0.977,-1.156 0.831,-2.885 -0.325,-3.862 -1.157,-0.977 -2.886,-0.831 -3.862,0.325 -0.977,1.157 -0.832,2.886 0.325,3.863 C -2.706,1.302 -0.977,1.157 0,0"
                   style="fill:#bcbbbc;fill-opacity:1;fill-rule:nonzero;stroke:none"
                   id="path394"
                   inkscape:connector-curvature="0" /></g></g></g></g><g
           id="g402"><g
             id="g404" /><g
             id="g416"><g
               clip-path="url(#clipPath408)"
               id="g414"
               style="opacity:0.30000299"><g
                 transform="translate(133.6255,760.9672)"
                 id="g412"><path
                   d="m 0,0 c 0.977,-1.156 0.831,-2.886 -0.326,-3.862 -1.156,-0.977 -2.885,-0.831 -3.862,0.325 -0.977,1.157 -0.831,2.886 0.326,3.863 C -2.706,1.302 -0.977,1.156 0,0"
                   style="fill:#bcbbbc;fill-opacity:1;fill-rule:nonzero;stroke:none"
                   id="path410"
                   inkscape:connector-curvature="0" /></g></g></g></g><g
           id="g418"><g
             id="g420" /><g
             id="g432"><g
               clip-path="url(#clipPath424)"
               id="g430"
               style="opacity:0.30000299"><g
                 transform="translate(355.75,845.0399)"
                 id="g428"><path
                   d="m 0,0 c 0.977,-1.156 0.83,-2.885 -0.326,-3.862 -1.156,-0.976 -2.885,-0.831 -3.862,0.325 -0.977,1.157 -0.831,2.886 0.326,3.863 C -2.706,1.302 -0.977,1.157 0,0"
                   style="fill:#bcbbbc;fill-opacity:1;fill-rule:nonzero;stroke:none"
                   id="path426"
                   inkscape:connector-curvature="0" /></g></g></g></g><g
           id="g434"><g
             id="g436" /><g
             id="g448"><g
               clip-path="url(#clipPath440)"
               id="g446"
               style="opacity:0.30000299"><g
                 transform="translate(507.7363,775.5287)"
                 id="g444"><path
                   d="m 0,0 c 0.977,-1.156 0.831,-2.886 -0.325,-3.862 -1.156,-0.977 -2.886,-0.831 -3.862,0.325 -0.977,1.157 -0.832,2.886 0.325,3.863 C -2.706,1.302 -0.977,1.156 0,0"
                   style="fill:#bcbbbc;fill-opacity:1;fill-rule:nonzero;stroke:none"
                   id="path442"
                   inkscape:connector-curvature="0" /></g></g></g></g><g
           id="g450"><g
             id="g452" /><g
             id="g464"><g
               clip-path="url(#clipPath456)"
               id="g462"
               style="opacity:0.30000299"><g
                 transform="translate(300.6826,707.8866)"
                 id="g460"><path
                   d="m 0,0 c 0.977,-1.156 0.831,-2.885 -0.325,-3.862 -1.156,-0.976 -2.886,-0.831 -3.862,0.325 -0.977,1.157 -0.832,2.886 0.325,3.863 C -2.706,1.302 -0.977,1.157 0,0"
                   style="fill:#bcbbbc;fill-opacity:1;fill-rule:nonzero;stroke:none"
                   id="path458"
                   inkscape:connector-curvature="0" /></g></g></g></g></g></g><text
       transform="scale(1,-1)"
       style="font-variant:normal;font-weight:bold;font-stretch:normal;font-size:27px;font-family:Arial;-inkscape-font-specification:Arial-BoldMT;writing-mode:lr-tb;fill:#ffffff;fill-opacity:1;fill-rule:nonzero;stroke:none"
       id="text470"
       x="152.3559"
       y="-783.54248"><tspan
         x="152.3559 167.36789 183.86488 201.87389 222.87988 230.38589 248.39491 264.89188 282.37167 298.86868 306.37469 324.3837 342.3927 360.40173 375.41373 390.42572 405.43771"
         y="-783.54248"
         sodipodi:role="line"
         id="tspan468">#LEGISLATIVES2017</tspan></text>
<path
       d="M 0,0 H 595.28 V 109.445 H 0 Z"
       style="fill:#6e3d8c;fill-opacity:1;fill-rule:nonzero;stroke:none"
       id="path472"
       inkscape:connector-curvature="0" /><g
       id="g474"
       inkscape:transform-center-x="73.239437"
       inkscape:transform-center-y="59.15493"
       transform="translate(142.60564,15.845071)"><g
         id="g476"
         clip-path="url(#clipPath480)"><g
           id="g482"
           transform="translate(239.9556,52.0882)"><path
             d="m 0,0 119.736,0 c 1.78,0 3.224,-1.443 3.224,-3.224 l 0,-24.475 c 0,-1.78 -1.444,-3.224 -3.224,-3.224 L 0,-30.923 c -1.781,0 -3.224,1.444 -3.224,3.224 l 0,24.475 C -3.224,-1.443 -1.781,0 0,0"
             style="fill:#000000;fill-opacity:1;fill-rule:nonzero;stroke:none"
             id="path484"
             inkscape:connector-curvature="0" /></g><g
           id="g486"
           transform="translate(308.6055,36.5629)"><path
             d="m 0,0 c 0,-0.61 -0.075,-1.165 -0.226,-1.665 -0.149,-0.5 -0.369,-0.93 -0.659,-1.289 -0.29,-0.359 -0.649,-0.64 -1.079,-0.84 -0.43,-0.2 -0.925,-0.3 -1.484,-0.3 -0.311,0 -0.6,0.031 -0.87,0.09 -0.27,0.061 -0.53,0.146 -0.78,0.255 l 0,-2.968 -2.234,0 0,10.39 c 0.2,0.059 0.43,0.117 0.689,0.173 0.261,0.054 0.534,0.101 0.818,0.141 0.285,0.04 0.575,0.073 0.87,0.098 0.295,0.025 0.577,0.037 0.847,0.037 0.649,0 1.229,-0.097 1.739,-0.292 C -1.859,3.635 -1.43,3.36 -1.08,3.006 -0.729,2.651 -0.463,2.219 -0.277,1.709 -0.093,1.199 0,0.629 0,0 m -2.279,-0.061 c 0,0.69 -0.155,1.243 -0.465,1.658 -0.31,0.415 -0.77,0.622 -1.379,0.622 -0.2,0 -0.385,-0.008 -0.555,-0.023 -0.17,-0.015 -0.309,-0.033 -0.42,-0.052 l 0,-4.034 c 0.14,-0.089 0.323,-0.165 0.547,-0.224 0.226,-0.061 0.452,-0.09 0.683,-0.09 1.059,0 1.589,0.714 1.589,2.143"
             style="fill:#6e3d8c;fill-opacity:1;fill-rule:nonzero;stroke:none"
             id="path488"
             inkscape:connector-curvature="0" /></g><g
           id="g490"
           transform="translate(312.7656,42.7845)"><path
             d="m 0,0 c 0,-0.41 -0.132,-0.732 -0.396,-0.967 -0.266,-0.235 -0.579,-0.352 -0.938,-0.352 -0.359,0 -0.672,0.117 -0.937,0.352 -0.265,0.235 -0.397,0.557 -0.397,0.967 0,0.41 0.132,0.732 0.397,0.967 0.265,0.235 0.578,0.352 0.937,0.352 0.359,0 0.672,-0.117 0.938,-0.352 C -0.132,0.732 0,0.41 0,0 m -0.21,-10.165 -2.233,0 0,7.886 2.233,0 z"
             style="fill:#6e3d8c;fill-opacity:1;fill-rule:nonzero;stroke:none"
             id="path492"
             inkscape:connector-curvature="0" /></g><g
           id="g494"
           transform="translate(319.4092,38.5267)"><path
             d="m 0,0 c -0.2,0.05 -0.436,0.103 -0.705,0.157 -0.27,0.055 -0.56,0.082 -0.869,0.082 -0.141,0 -0.308,-0.011 -0.503,-0.037 C -2.271,0.177 -2.419,0.149 -2.52,0.12 l 0,-6.027 -2.233,0 0,7.466 c 0.399,0.14 0.872,0.272 1.417,0.397 0.544,0.125 1.151,0.188 1.821,0.188 0.12,0 0.265,-0.008 0.435,-0.023 0.17,-0.015 0.34,-0.035 0.51,-0.059 0.17,-0.026 0.34,-0.056 0.509,-0.09 0.17,-0.035 0.316,-0.078 0.435,-0.128 z"
             style="fill:#6e3d8c;fill-opacity:1;fill-rule:nonzero;stroke:none"
             id="path496"
             inkscape:connector-curvature="0" /></g><g
           id="g498"
           transform="translate(323.8154,40.7152)"><path
             d="m 0,0 c 0.659,0 1.209,-0.074 1.648,-0.225 0.441,-0.149 0.792,-0.364 1.058,-0.644 0.265,-0.28 0.452,-0.62 0.563,-1.02 0.109,-0.4 0.164,-0.844 0.164,-1.334 l 0,-4.648 c -0.32,-0.07 -0.765,-0.152 -1.334,-0.247 -0.57,-0.095 -1.26,-0.143 -2.07,-0.143 -0.509,0 -0.971,0.045 -1.386,0.135 -0.415,0.09 -0.772,0.237 -1.073,0.442 -0.299,0.205 -0.529,0.473 -0.689,0.802 -0.16,0.33 -0.239,0.736 -0.239,1.215 0,0.46 0.091,0.85 0.276,1.17 0.186,0.319 0.433,0.574 0.742,0.764 0.311,0.19 0.665,0.328 1.065,0.413 0.4,0.085 0.815,0.127 1.245,0.127 0.29,0 0.547,-0.013 0.772,-0.037 0.225,-0.026 0.407,-0.058 0.547,-0.098 l 0,0.21 c 0,0.38 -0.115,0.684 -0.345,0.914 -0.229,0.23 -0.63,0.345 -1.199,0.345 -0.38,0 -0.755,-0.028 -1.125,-0.082 -0.37,-0.055 -0.689,-0.133 -0.96,-0.233 l -0.284,1.8 c 0.13,0.04 0.292,0.082 0.487,0.127 0.195,0.045 0.408,0.085 0.637,0.12 0.23,0.035 0.473,0.065 0.728,0.09 C -0.518,-0.012 -0.261,0 0,0 m 0.18,-6.537 c 0.219,0 0.429,0.006 0.63,0.016 0.199,0.009 0.359,0.024 0.479,0.044 l 0,1.695 c -0.09,0.019 -0.225,0.04 -0.405,0.059 -0.18,0.02 -0.345,0.031 -0.494,0.031 -0.21,0 -0.408,-0.013 -0.593,-0.038 -0.185,-0.025 -0.348,-0.073 -0.487,-0.142 -0.14,-0.07 -0.249,-0.165 -0.33,-0.285 -0.08,-0.12 -0.12,-0.271 -0.12,-0.45 0,-0.35 0.118,-0.592 0.353,-0.727 0.234,-0.135 0.557,-0.203 0.967,-0.203"
             style="fill:#6e3d8c;fill-opacity:1;fill-rule:nonzero;stroke:none"
             id="path500"
             inkscape:connector-curvature="0" /></g><g
           id="g502"
           transform="translate(329.1934,42.4701)"><path
             d="m 0,0 2.234,0.359 0,-2.324 2.684,0 0,-1.858 -2.684,0 0,-2.775 c 0,-0.469 0.082,-0.843 0.247,-1.124 0.165,-0.28 0.498,-0.42 0.998,-0.42 0.24,0 0.487,0.023 0.742,0.068 0.255,0.045 0.487,0.107 0.697,0.187 L 5.232,-9.626 C 4.963,-9.735 4.663,-9.831 4.333,-9.911 4.003,-9.99 3.599,-10.03 3.119,-10.03 c -0.61,0 -1.115,0.082 -1.515,0.247 -0.4,0.165 -0.719,0.394 -0.959,0.689 -0.24,0.295 -0.408,0.653 -0.502,1.073 C 0.048,-7.602 0,-7.137 0,-6.627 Z"
             style="fill:#6e3d8c;fill-opacity:1;fill-rule:nonzero;stroke:none"
             id="path504"
             inkscape:connector-curvature="0" /></g><g
           id="g506"
           transform="translate(340.7881,37.3568)"><path
             d="m 0,0 c -0.01,0.19 -0.042,0.375 -0.097,0.555 -0.055,0.18 -0.14,0.34 -0.256,0.479 -0.114,0.141 -0.259,0.255 -0.434,0.346 -0.175,0.09 -0.392,0.135 -0.651,0.135 -0.25,0 -0.466,-0.043 -0.646,-0.128 C -2.264,1.302 -2.413,1.189 -2.533,1.05 -2.653,0.91 -2.746,0.747 -2.811,0.562 -2.876,0.378 -2.924,0.19 -2.953,0 Z m -5.247,-0.854 c 0,0.7 0.107,1.312 0.322,1.836 0.215,0.525 0.497,0.962 0.847,1.312 0.35,0.35 0.752,0.615 1.207,0.795 0.455,0.18 0.922,0.269 1.402,0.269 1.119,0 2.004,-0.341 2.654,-1.026 0.65,-0.685 0.974,-1.692 0.974,-3.021 0,-0.13 -0.005,-0.273 -0.014,-0.428 C 2.134,-1.271 2.124,-1.409 2.114,-1.529 l -5.067,0 c 0.05,-0.46 0.265,-0.825 0.644,-1.094 0.38,-0.271 0.89,-0.405 1.53,-0.405 0.41,0 0.812,0.038 1.207,0.112 0.394,0.075 0.717,0.168 0.967,0.277 L 1.694,-4.452 C 1.574,-4.513 1.415,-4.572 1.215,-4.633 1.015,-4.692 0.792,-4.745 0.548,-4.79 0.303,-4.835 0.04,-4.872 -0.239,-4.902 c -0.281,-0.031 -0.56,-0.045 -0.84,-0.045 -0.71,0 -1.327,0.104 -1.852,0.314 -0.524,0.21 -0.96,0.498 -1.304,0.862 -0.345,0.366 -0.6,0.797 -0.765,1.297 -0.165,0.5 -0.247,1.039 -0.247,1.62"
             style="fill:#6e3d8c;fill-opacity:1;fill-rule:nonzero;stroke:none"
             id="path508"
             inkscape:connector-curvature="0" /></g><g
           id="g510"
           transform="translate(275.9912,36.5023)"><path
             d="m 0,0 c 0,-0.59 -0.078,-1.134 -0.232,-1.634 -0.156,-0.5 -0.383,-0.929 -0.683,-1.29 -0.3,-0.359 -0.667,-0.639 -1.102,-0.839 -0.435,-0.2 -0.932,-0.299 -1.492,-0.299 -0.449,0 -0.846,0.059 -1.191,0.179 -0.345,0.119 -0.603,0.235 -0.773,0.345 l 0,-3.118 -1.394,0 0,10.33 c 0.33,0.079 0.742,0.167 1.237,0.262 0.495,0.095 1.067,0.142 1.717,0.142 0.6,0 1.139,-0.095 1.619,-0.284 0.48,-0.19 0.89,-0.46 1.23,-0.811 C -0.725,2.634 -0.462,2.207 -0.277,1.702 -0.093,1.197 0,0.63 0,0 m -1.454,0 c 0,0.91 -0.225,1.609 -0.675,2.1 -0.45,0.489 -1.05,0.734 -1.799,0.734 -0.42,0 -0.747,-0.016 -0.982,-0.045 -0.235,-0.03 -0.423,-0.065 -0.563,-0.105 l 0,-4.918 c 0.17,-0.14 0.415,-0.275 0.735,-0.405 0.32,-0.13 0.67,-0.194 1.05,-0.194 0.399,0 0.742,0.072 1.027,0.217 0.285,0.144 0.517,0.345 0.697,0.599 0.179,0.255 0.31,0.555 0.39,0.9 0.08,0.345 0.12,0.718 0.12,1.117"
             style="fill:#ffffff;fill-opacity:1;fill-rule:nonzero;stroke:none"
             id="path512"
             inkscape:connector-curvature="0" /></g><g
           id="g514"
           transform="translate(280.4863,40.6107)"><path
             d="m 0,0 c 0.56,0 1.032,-0.073 1.417,-0.218 0.385,-0.144 0.695,-0.349 0.93,-0.614 0.235,-0.266 0.402,-0.58 0.502,-0.945 0.1,-0.365 0.15,-0.767 0.15,-1.206 l 0,-4.873 C 2.879,-7.877 2.711,-7.904 2.497,-7.939 2.282,-7.974 2.04,-8.007 1.77,-8.036 1.5,-8.066 1.207,-8.094 0.892,-8.119 0.578,-8.144 0.265,-8.156 -0.045,-8.156 c -0.44,0 -0.844,0.045 -1.214,0.135 -0.37,0.089 -0.69,0.232 -0.96,0.426 -0.27,0.196 -0.479,0.453 -0.63,0.773 -0.15,0.32 -0.224,0.705 -0.224,1.154 0,0.431 0.087,0.8 0.262,1.11 0.175,0.31 0.413,0.56 0.712,0.749 0.3,0.191 0.65,0.33 1.05,0.42 0.4,0.09 0.819,0.135 1.259,0.135 0.14,0 0.285,-0.007 0.435,-0.022 0.15,-0.015 0.292,-0.036 0.427,-0.06 0.136,-0.025 0.253,-0.048 0.353,-0.067 0.099,-0.021 0.169,-0.035 0.209,-0.045 l 0,0.389 c 0,0.23 -0.025,0.457 -0.074,0.682 -0.051,0.226 -0.141,0.425 -0.27,0.601 -0.13,0.174 -0.308,0.314 -0.533,0.419 -0.224,0.105 -0.517,0.158 -0.877,0.158 -0.46,0 -0.862,-0.033 -1.207,-0.098 -0.344,-0.065 -0.602,-0.133 -0.772,-0.202 l -0.165,1.154 c 0.18,0.08 0.48,0.158 0.9,0.233 C -0.944,-0.038 -0.49,0 0,0 m 0.121,-6.987 c 0.329,0 0.622,0.008 0.876,0.022 0.255,0.016 0.467,0.043 0.637,0.083 l 0,2.324 c -0.1,0.05 -0.262,0.092 -0.487,0.127 -0.225,0.035 -0.497,0.053 -0.817,0.053 -0.21,0 -0.432,-0.016 -0.667,-0.045 -0.235,-0.03 -0.45,-0.093 -0.645,-0.187 -0.195,-0.095 -0.357,-0.225 -0.487,-0.39 -0.13,-0.165 -0.195,-0.383 -0.195,-0.652 0,-0.5 0.16,-0.848 0.48,-1.042 0.32,-0.196 0.754,-0.293 1.305,-0.293"
             style="fill:#ffffff;fill-opacity:1;fill-rule:nonzero;stroke:none"
             id="path516"
             inkscape:connector-curvature="0" /></g><g
           id="g518"
           transform="translate(288.665,40.5804)"><path
             d="M 0,0 C 0.12,0 0.257,-0.007 0.412,-0.022 0.567,-0.037 0.72,-0.058 0.87,-0.082 1.02,-0.107 1.157,-0.132 1.282,-0.157 1.407,-0.183 1.5,-0.205 1.56,-0.225 L 1.319,-1.439 c -0.11,0.04 -0.292,0.087 -0.547,0.142 -0.255,0.056 -0.582,0.083 -0.982,0.083 -0.26,0 -0.517,-0.027 -0.772,-0.083 -0.255,-0.055 -0.422,-0.093 -0.502,-0.112 l 0,-6.552 -1.395,0 0,7.466 c 0.33,0.12 0.74,0.233 1.23,0.338 C -1.16,-0.053 -0.61,0 0,0"
             style="fill:#ffffff;fill-opacity:1;fill-rule:nonzero;stroke:none"
             id="path520"
             inkscape:connector-curvature="0" /></g><g
           id="g522"
           transform="translate(292.8887,40.4154)"><path
             d="m 0,0 2.954,0 0,-1.17 -2.954,0 0,-3.598 c 0,-0.389 0.03,-0.711 0.09,-0.966 0.06,-0.255 0.15,-0.455 0.27,-0.6 0.12,-0.145 0.27,-0.248 0.45,-0.308 0.18,-0.059 0.39,-0.089 0.629,-0.089 0.42,0 0.758,0.047 1.012,0.142 0.255,0.095 0.433,0.162 0.533,0.202 l 0.27,-1.154 C 3.114,-7.611 2.869,-7.698 2.519,-7.804 2.169,-7.908 1.769,-7.961 1.32,-7.961 c -0.53,0 -0.967,0.067 -1.312,0.202 -0.345,0.135 -0.623,0.337 -0.832,0.608 -0.21,0.269 -0.358,0.602 -0.443,0.997 -0.085,0.394 -0.127,0.851 -0.127,1.371 l 0,6.958 L 0,2.414 Z"
             style="fill:#ffffff;fill-opacity:1;fill-rule:nonzero;stroke:none"
             id="path524"
             inkscape:connector-curvature="0" /></g><g
           id="g526"
           transform="translate(298.3066,41.8255)"><path
             d="m 0,0 c -0.25,0 -0.462,0.082 -0.637,0.247 -0.175,0.165 -0.262,0.387 -0.262,0.667 0,0.279 0.087,0.502 0.262,0.667 C -0.462,1.746 -0.25,1.828 0,1.828 0.25,1.828 0.462,1.746 0.637,1.581 0.812,1.416 0.899,1.193 0.899,0.914 0.899,0.634 0.812,0.412 0.637,0.247 0.462,0.082 0.25,0 0,0 m 0.704,-9.206 -1.394,0 0,7.796 1.394,0 z"
             style="fill:#ffffff;fill-opacity:1;fill-rule:nonzero;stroke:none"
             id="path528"
             inkscape:connector-curvature="0" /></g><g
           id="g530"
           transform="translate(346.4707,33.4291)"><path
             d="m 0,0 c 0,-0.271 -0.09,-0.505 -0.271,-0.705 -0.179,-0.199 -0.424,-0.3 -0.734,-0.3 -0.309,0 -0.555,0.101 -0.734,0.3 -0.18,0.2 -0.27,0.434 -0.27,0.705 0,0.27 0.09,0.505 0.27,0.704 0.179,0.2 0.425,0.3 0.734,0.3 0.31,0 0.555,-0.1 0.734,-0.3 C -0.09,0.505 0,0.27 0,0"
             style="fill:#ffffff;fill-opacity:1;fill-rule:nonzero;stroke:none"
             id="path532"
             inkscape:connector-curvature="0" /></g><g
           id="g534"
           transform="translate(351.5547,44.2543)"><path
             d="M 0,0 C 0.41,0 0.762,-0.03 1.057,-0.091 1.352,-0.15 1.559,-0.205 1.679,-0.255 l -0.255,-1.2 c -0.119,0.06 -0.289,0.118 -0.51,0.173 -0.22,0.054 -0.489,0.083 -0.809,0.083 -0.65,0 -1.105,-0.178 -1.365,-0.533 -0.26,-0.355 -0.389,-0.832 -0.389,-1.432 l 0,-0.675 2.998,0 0,-1.17 -2.998,0 0,-6.626 -1.395,0 0,8.501 c 0,0.999 0.245,1.772 0.735,2.317 C -1.819,-0.272 -1.05,0 0,0"
             style="fill:#ffffff;fill-opacity:1;fill-rule:nonzero;stroke:none"
             id="path536"
             inkscape:connector-curvature="0" /></g><g
           id="g538"
           transform="translate(357.1875,40.5804)"><path
             d="M 0,0 C 0.12,0 0.258,-0.007 0.412,-0.022 0.567,-0.037 0.72,-0.058 0.87,-0.082 1.02,-0.107 1.157,-0.132 1.282,-0.157 1.407,-0.183 1.5,-0.205 1.56,-0.225 L 1.319,-1.439 c -0.109,0.04 -0.292,0.087 -0.547,0.142 -0.254,0.056 -0.582,0.083 -0.982,0.083 -0.26,0 -0.517,-0.027 -0.771,-0.083 -0.255,-0.055 -0.423,-0.093 -0.503,-0.112 l 0,-6.552 -1.395,0 0,7.466 c 0.33,0.12 0.74,0.233 1.23,0.338 C -1.159,-0.053 -0.609,0 0,0"
             style="fill:#ffffff;fill-opacity:1;fill-rule:nonzero;stroke:none"
             id="path540"
             inkscape:connector-curvature="0" /></g><g
           id="g542"
           transform="translate(264.707,35.9945)"><path
             d="m 0,0 c 0,-6.689 -5.423,-12.112 -12.113,-12.112 -6.689,0 -12.113,5.423 -12.113,12.112 0,6.689 5.424,12.113 12.113,12.113 C -5.423,12.113 0,6.689 0,0"
             style="fill:#ffffff;fill-opacity:1;fill-rule:nonzero;stroke:none"
             id="path544"
             inkscape:connector-curvature="0" /></g><g
           id="g546"
           transform="translate(252.5937,47.0296)"><path
             d="m 0,0 c -6.093,0 -11.034,-4.939 -11.034,-11.035 0,-6.094 4.941,-11.034 11.034,-11.034 6.094,0 11.035,4.941 11.035,11.034 C 11.035,-4.938 6.093,0 0,0 m 0,-20.936 c -5.466,0 -9.899,4.433 -9.899,9.901 0,5.468 4.433,9.9 9.899,9.9 5.469,0 9.9,-4.432 9.9,-9.9 0,-5.468 -4.431,-9.901 -9.9,-9.901"
             style="fill:#000000;fill-opacity:1;fill-rule:nonzero;stroke:none"
             id="path548"
             inkscape:connector-curvature="0" /></g><g
           id="g550"
           transform="translate(257.311,41.4867)"><path
             d="m 0,0 c -2.387,1.339 -5.378,1.351 -7.751,0.742 l 0,1.028 -1.03,0 0,-1.341 c -0.443,-0.161 -0.851,-0.341 -1.216,-0.538 0,0 0.513,0.063 1.216,0.019 l 0,-8.981 c -0.512,-0.788 -0.635,-1.555 -0.513,-2.441 0.134,-0.989 0.881,-1.65 1.47,-2.138 -0.347,0.998 -0.374,1.905 -0.271,2.455 0.195,1.026 0.796,1.763 3.393,2.327 2.695,0.581 5.888,0.849 6.943,3.467 C 2.722,-4.206 3.02,-1.695 0,0 m -6.298,-6.754 c -0.578,-0.405 -1.057,-0.783 -1.453,-1.144 l 0,7.672 c 0.802,-0.17 1.651,-0.516 2.237,-1.205 1.441,-1.703 0.953,-4.104 -0.784,-5.323"
             style="fill:#000000;fill-opacity:1;fill-rule:nonzero;stroke:none"
             id="path552"
             inkscape:connector-curvature="0" /></g></g></g><text
       xml:space="preserve"
       style="font-style:normal;font-weight:normal;font-size:29.1814003px;line-height:125%;font-family:sans-serif;letter-spacing:0px;word-spacing:0px;fill:#000000;fill-opacity:1;stroke:none;stroke-width:0.72953504"
       x="59.211399"
       y="-693.57202"
       id="text5213"
       transform="scale(0.97271335,-1.0280521)"
       sodipodi:linespacing="125%"><tspan
         sodipodi:role="line"
         x="59.211399"
         y="-693.57202"
         style="font-style:normal;font-variant:normal;font-weight:normal;font-stretch:normal;font-size:11.67256069px;line-height:125%;font-family:Ubuntu;-inkscape-font-specification:Ubuntu;stroke-width:0.72953504"
         id="tspan3715">Le <tspan
   style="font-style:normal;font-variant:normal;font-weight:bold;font-stretch:normal;line-height:125%;font-family:Ubuntu;-inkscape-font-specification:'Ubuntu Bold';fill:#6f3e8c;fill-opacity:1;stroke-width:0.72953504"
   id="tspan5230">Parti Pirate </tspan>est un mouvement politique international ralliant celles et ceux qui aspirent </tspan><tspan
         sodipodi:role="line"
         x="59.211399"
         y="-678.98132"
         style="font-style:normal;font-variant:normal;font-weight:normal;font-stretch:normal;font-size:11.67256069px;line-height:125%;font-family:Ubuntu;-inkscape-font-specification:Ubuntu;stroke-width:0.72953504"
         id="tspan3721">à une société capable de :</tspan><tspan
         sodipodi:role="line"
         x="59.211399"
         y="-664.39062"
         style="font-style:normal;font-variant:normal;font-weight:normal;font-stretch:normal;font-size:11.67256069px;line-height:125%;font-family:Ubuntu;-inkscape-font-specification:Ubuntu;stroke-width:0.72953504"
         id="tspan3708" /><tspan
         sodipodi:role="line"
         x="59.211399"
         y="-649.79993"
         style="font-style:normal;font-variant:normal;font-weight:normal;font-stretch:normal;font-size:11.67256069px;line-height:125%;font-family:Ubuntu;-inkscape-font-specification:Ubuntu;stroke-width:0.72953504"
         id="tspan5217"><tspan
   style="font-style:normal;font-variant:normal;font-weight:bold;font-stretch:normal;line-height:125%;font-family:Ubuntu;-inkscape-font-specification:'Ubuntu Bold';fill:#6f3e8c;fill-opacity:1;stroke-width:0.72953504"
   id="tspan5420">           Partager</tspan> fraternellement les savoirs culturels et scientifiques de l’humanité</tspan><tspan
         sodipodi:role="line"
         x="59.211399"
         y="-635.20923"
         style="font-style:normal;font-variant:normal;font-weight:normal;font-stretch:normal;font-size:11.67256069px;line-height:125%;font-family:Ubuntu;-inkscape-font-specification:Ubuntu;stroke-width:0.72953504"
         id="tspan5223"><tspan
   style="font-style:normal;font-variant:normal;font-weight:bold;font-stretch:normal;line-height:125%;font-family:Ubuntu;-inkscape-font-specification:'Ubuntu Bold';fill:#6f3e8c;fill-opacity:1;stroke-width:0.72953504"
   id="tspan5426">           Protéger</tspan> l’égalité des droits des citoyens grâce à des institutions humaines et transparentes</tspan><tspan
         sodipodi:role="line"
         x="59.211399"
         y="-620.61853"
         style="font-style:normal;font-variant:normal;font-weight:normal;font-stretch:normal;font-size:11.67256069px;line-height:125%;font-family:Ubuntu;-inkscape-font-specification:Ubuntu;stroke-width:0.72953504"
         id="tspan5219"><tspan
   style="font-style:normal;font-variant:normal;font-weight:bold;font-stretch:normal;line-height:125%;font-family:Ubuntu;-inkscape-font-specification:'Ubuntu Bold';fill:#6f3e8c;fill-opacity:1;stroke-width:0.72953504"
   id="tspan5430">           Défendre</tspan> les libertés fondamentales sur Internet comme dans la vie quotidienne</tspan></text>
<text
       xml:space="preserve"
       style="font-style:normal;font-weight:normal;font-size:29.18139839px;line-height:125%;font-family:sans-serif;letter-spacing:0px;word-spacing:0px;fill:#000000;fill-opacity:1;stroke:none;stroke-width:0.72953504"
       x="62.054295"
       y="-232.2997"
       id="text5213-9"
       transform="scale(0.97271335,-1.0280521)"
       sodipodi:linespacing="125%"><tspan
         sodipodi:role="line"
         x="62.054295"
         y="-232.2997"
         style="font-style:normal;font-variant:normal;font-weight:normal;font-stretch:normal;font-size:11.67256069px;line-height:0.5;font-family:Ubuntu;-inkscape-font-specification:Ubuntu;fill:#000000;fill-opacity:1;stroke-width:0.72953504"
         id="tspan5547" /><tspan
         sodipodi:role="line"
         x="62.054295"
         y="-226.46342"
         style="font-style:normal;font-variant:normal;font-weight:normal;font-stretch:normal;font-size:11.67256069px;line-height:150%;font-family:Ubuntu;-inkscape-font-specification:Ubuntu;fill:#000000;fill-opacity:1;stroke-width:0.72953504"
         id="tspan5584" /><tspan
         sodipodi:role="line"
         x="62.054295"
         y="-220.62714"
         style="font-style:normal;font-variant:normal;font-weight:normal;font-stretch:normal;font-size:11.67256069px;line-height:150%;font-family:Ubuntu;-inkscape-font-specification:Ubuntu;fill:#000000;fill-opacity:1;stroke-width:0.72953504"
         id="tspan5587" /><tspan
         sodipodi:role="line"
         x="62.054295"
         y="-214.79086"
         style="font-style:normal;font-variant:normal;font-weight:normal;font-stretch:normal;font-size:11.67256069px;line-height:150%;font-family:Ubuntu;-inkscape-font-specification:Ubuntu;fill:#000000;fill-opacity:1;stroke-width:0.72953504"
         id="tspan5590" /><tspan
         sodipodi:role="line"
         x="62.054295"
         y="-208.95457"
         style="font-style:normal;font-variant:normal;font-weight:normal;font-stretch:normal;font-size:11.67256069px;line-height:150%;font-family:Ubuntu;-inkscape-font-specification:Ubuntu;fill:#000000;fill-opacity:1;stroke-width:0.72953504"
         id="tspan5593" /><tspan
         sodipodi:role="line"
         x="62.054295"
         y="-198.38426"
         style="font-style:normal;font-variant:normal;font-weight:normal;font-stretch:normal;font-size:11.67256069px;line-height:100%;font-family:Ubuntu;-inkscape-font-specification:Ubuntu;fill:#000000;fill-opacity:1;stroke-width:0.72953504"
         id="tspan5596">Le <tspan
   style="font-style:normal;font-variant:normal;font-weight:bold;font-stretch:normal;line-height:100%;font-family:Ubuntu;-inkscape-font-specification:'Ubuntu Bold';fill:#6f3e8c;fill-opacity:1;stroke-width:0.72953504"
   id="tspan5230-9">Parti Pirate soutient également :</tspan></tspan><tspan
         sodipodi:role="line"
         x="62.054295"
         y="-186.7117"
         style="font-style:normal;font-variant:normal;font-weight:normal;font-stretch:normal;font-size:11.67256069px;line-height:150%;font-family:Ubuntu;-inkscape-font-specification:Ubuntu;fill:#000000;fill-opacity:1;stroke-width:0.72953504"
         id="tspan5942" /><tspan
         sodipodi:role="line"
         x="62.054295"
         y="-172.67212"
         style="font-style:normal;font-variant:normal;font-weight:normal;font-stretch:normal;font-size:11.67256069px;line-height:125%;font-family:Ubuntu;-inkscape-font-specification:Ubuntu;fill:#000000;fill-opacity:1;stroke-width:0.72953504"
         id="tspan5833">-  Une lutte réelle contre l'évasion fiscale</tspan><tspan
         sodipodi:role="line"
         x="62.054295"
         y="-158.08141"
         style="font-style:normal;font-variant:normal;font-weight:normal;font-stretch:normal;font-size:11.67256069px;line-height:125%;font-family:Ubuntu;-inkscape-font-specification:Ubuntu;fill:#010101;fill-opacity:1;stroke-width:0.72953504"
         id="tspan5571">-  La mise en place d'un revenu de base</tspan><tspan
         sodipodi:role="line"
         x="62.054295"
         y="-143.49071"
         style="font-style:normal;font-variant:normal;font-weight:normal;font-stretch:normal;font-size:11.67256069px;line-height:125%;font-family:Ubuntu;-inkscape-font-specification:Ubuntu;fill:#010101;fill-opacity:1;stroke-width:0.72953504"
         id="tspan5573">-  Les banques qui investissent dans l'économie locale et collaborative.</tspan><tspan
         sodipodi:role="line"
         x="62.054295"
         y="-128.90001"
         style="font-style:normal;font-variant:normal;font-weight:normal;font-stretch:normal;font-size:11.67256069px;line-height:125%;font-family:Ubuntu;-inkscape-font-specification:Ubuntu;fill:#010101;fill-opacity:1;stroke-width:0.72953504"
         id="tspan5219-3">-  Les énergies renouvelables</tspan></text>
<flowRoot
       xml:space="preserve"
       id="flowRoot5599"
       style="fill:black;fill-opacity:1;stroke:none;font-family:sans-serif;font-style:normal;font-weight:normal;font-size:40px;line-height:1.25;letter-spacing:0px;word-spacing:0px"><flowRegion
         id="flowRegion5601"><rect
           id="rect5603"
           width="56.338028"
           height="0"
           x="32.394367"
           y="343.64679" /></flowRegion><flowPara
         id="flowPara5605" /></flowRoot><text
       xml:space="preserve"
       style="font-style:normal;font-weight:normal;font-size:29.18139839px;line-height:125%;font-family:sans-serif;letter-spacing:0px;word-spacing:0px;fill:#000000;fill-opacity:1;stroke:none;stroke-width:0.72953504"
       x="62.317387"
       y="-632.43445"
       id="text5213-9-0"
       transform="scale(0.97271335,-1.0280521)"
       sodipodi:linespacing="125%"><tspan
         sodipodi:role="line"
         x="62.317387"
         y="-632.43445"
         style="font-style:normal;font-variant:normal;font-weight:normal;font-stretch:normal;font-size:11.67256069px;line-height:0.5;font-family:Ubuntu;-inkscape-font-specification:Ubuntu;fill:#000000;fill-opacity:1;stroke-width:0.72953504"
         id="tspan5547-8" /><tspan
         sodipodi:role="line"
         x="62.317387"
         y="-626.59814"
         style="font-style:normal;font-variant:normal;font-weight:normal;font-stretch:normal;font-size:11.67256069px;line-height:150%;font-family:Ubuntu;-inkscape-font-specification:Ubuntu;fill:#000000;fill-opacity:1;stroke-width:0.72953504"
         id="tspan5584-6" /><tspan
         sodipodi:role="line"
         x="62.317387"
         y="-620.7619"
         style="font-style:normal;font-variant:normal;font-weight:normal;font-stretch:normal;font-size:11.67256069px;line-height:150%;font-family:Ubuntu;-inkscape-font-specification:Ubuntu;fill:#000000;fill-opacity:1;stroke-width:0.72953504"
         id="tspan5587-2" /><tspan
         sodipodi:role="line"
         x="62.317387"
         y="-614.9256"
         style="font-style:normal;font-variant:normal;font-weight:normal;font-stretch:normal;font-size:11.67256069px;line-height:150%;font-family:Ubuntu;-inkscape-font-specification:Ubuntu;fill:#000000;fill-opacity:1;stroke-width:0.72953504"
         id="tspan5590-6" /><tspan
         sodipodi:role="line"
         x="62.317387"
         y="-609.08936"
         style="font-style:normal;font-variant:normal;font-weight:normal;font-stretch:normal;font-size:11.67256069px;line-height:150%;font-family:Ubuntu;-inkscape-font-specification:Ubuntu;fill:#000000;fill-opacity:1;stroke-width:0.72953504"
         id="tspan5593-1" /><tspan
         sodipodi:role="line"
         x="62.317387"
         y="-593.78497"
         style="font-style:normal;font-variant:normal;font-weight:normal;font-stretch:normal;font-size:11.67256069px;line-height:150%;font-family:Ubuntu;-inkscape-font-specification:Ubuntu;fill:#000000;fill-opacity:1;stroke-width:0.72953504"
         id="tspan5596-3">Le <tspan
   style="font-style:normal;font-variant:normal;font-weight:bold;font-stretch:normal;line-height:150%;font-family:Ubuntu;-inkscape-font-specification:'Ubuntu Bold';fill:#6f3e8c;fill-opacity:1;stroke-width:0.72953504"
   id="tspan5230-9-7">Parti Pirate met la notion de Bien Commun au coeur de son action politique</tspan></tspan><tspan
         sodipodi:role="line"
         x="62.317387"
         y="-581.01019"
         style="font-style:normal;font-variant:normal;font-weight:normal;font-stretch:normal;font-size:11.67256069px;line-height:100%;font-family:Ubuntu;-inkscape-font-specification:Ubuntu;fill:#000000;fill-opacity:1;stroke-width:0.72953504"
         id="tspan5665">et propose de :</tspan><tspan
         sodipodi:role="line"
         x="62.317387"
         y="-569.33759"
         style="font-style:normal;font-variant:normal;font-weight:normal;font-stretch:normal;font-size:11.67256069px;line-height:150%;font-family:Ubuntu;-inkscape-font-specification:Ubuntu;fill:#000000;fill-opacity:1;stroke-width:0.72953504"
         id="tspan5669" /><tspan
         sodipodi:role="line"
         x="62.317387"
         y="-552.93103"
         style="font-style:normal;font-variant:normal;font-weight:normal;font-stretch:normal;font-size:11.67256069px;line-height:150%;font-family:Ubuntu;-inkscape-font-specification:Ubuntu;fill:#000000;fill-opacity:1;stroke-width:0.72953504"
         id="tspan5926">-  <tspan
   style="line-height:125%"
   id="tspan3700">Repenser le système de gestion des droits d'auteur</tspan></tspan><tspan
         sodipodi:role="line"
         x="62.317387"
         y="-537.78918"
         style="font-style:normal;font-variant:normal;font-weight:normal;font-stretch:normal;font-size:11.67256069px;line-height:125%;font-family:Ubuntu;-inkscape-font-specification:Ubuntu;fill:#000000;fill-opacity:1;stroke-width:0.72953504"
         id="tspan5671">-  Empêcher l'appropriation du domaine public</tspan><tspan
         sodipodi:role="line"
         x="62.317387"
         y="-523.19849"
         style="font-style:normal;font-variant:normal;font-weight:normal;font-stretch:normal;font-size:11.67256069px;line-height:125%;font-family:Ubuntu;-inkscape-font-specification:Ubuntu;fill:#000000;fill-opacity:1;stroke-width:0.72953504"
         id="tspan5673">-  Soutenir la recherche fondamentale</tspan><tspan
         sodipodi:role="line"
         x="62.317387"
         y="-508.60779"
         style="font-style:normal;font-variant:normal;font-weight:normal;font-stretch:normal;font-size:11.67256069px;line-height:125%;font-family:Ubuntu;-inkscape-font-specification:Ubuntu;fill:#000000;fill-opacity:1;stroke-width:0.72953504"
         id="tspan5677">-  Interdire les brevets sur le vivant</tspan><tspan
         sodipodi:role="line"
         x="62.317387"
         y="-494.01709"
         style="font-style:normal;font-variant:normal;font-weight:normal;font-stretch:normal;font-size:11.67256069px;line-height:125%;font-family:Ubuntu;-inkscape-font-specification:Ubuntu;stroke-width:0.72953504"
         id="tspan5219-3-4">-  Interdire les brevets sur les idées, les algorithmes, les formules mathématiques </tspan></text>
<text
       xml:space="preserve"
       style="font-style:normal;font-weight:normal;font-size:29.18139839px;line-height:125%;font-family:sans-serif;letter-spacing:0px;word-spacing:0px;fill:#000000;fill-opacity:1;stroke:none;stroke-width:0.72953504"
       x="60.6478"
       y="-507.18701"
       id="text5213-9-0-8"
       transform="scale(0.97271335,-1.0280521)"
       sodipodi:linespacing="125%"><tspan
         sodipodi:role="line"
         x="60.6478"
         y="-507.18701"
         style="font-style:normal;font-variant:normal;font-weight:normal;font-stretch:normal;font-size:11.67256069px;line-height:0.5;font-family:Ubuntu;-inkscape-font-specification:Ubuntu;fill:#000000;fill-opacity:1;stroke-width:0.72953504"
         id="tspan5547-8-4" /><tspan
         sodipodi:role="line"
         x="60.6478"
         y="-501.35074"
         style="font-style:normal;font-variant:normal;font-weight:normal;font-stretch:normal;font-size:11.67256069px;line-height:150%;font-family:Ubuntu;-inkscape-font-specification:Ubuntu;fill:#000000;fill-opacity:1;stroke-width:0.72953504"
         id="tspan5584-6-8" /><tspan
         sodipodi:role="line"
         x="60.6478"
         y="-495.51447"
         style="font-style:normal;font-variant:normal;font-weight:normal;font-stretch:normal;font-size:11.67256069px;line-height:150%;font-family:Ubuntu;-inkscape-font-specification:Ubuntu;fill:#000000;fill-opacity:1;stroke-width:0.72953504"
         id="tspan5587-2-1" /><tspan
         sodipodi:role="line"
         x="60.6478"
         y="-489.67816"
         style="font-style:normal;font-variant:normal;font-weight:normal;font-stretch:normal;font-size:11.67256069px;line-height:150%;font-family:Ubuntu;-inkscape-font-specification:Ubuntu;fill:#000000;fill-opacity:1;stroke-width:0.72953504"
         id="tspan5590-6-2" /><tspan
         sodipodi:role="line"
         x="60.6478"
         y="-483.84189"
         style="font-style:normal;font-variant:normal;font-weight:normal;font-stretch:normal;font-size:11.67256069px;line-height:150%;font-family:Ubuntu;-inkscape-font-specification:Ubuntu;fill:#000000;fill-opacity:1;stroke-width:0.72953504"
         id="tspan5593-1-5" /><tspan
         sodipodi:role="line"
         x="60.6478"
         y="-468.53754"
         style="font-style:normal;font-variant:normal;font-weight:normal;font-stretch:normal;font-size:11.67256069px;line-height:150%;font-family:Ubuntu;-inkscape-font-specification:Ubuntu;fill:#000000;fill-opacity:1;stroke-width:0.72953504"
         id="tspan5596-3-2">Le <tspan
   style="font-style:normal;font-variant:normal;font-weight:bold;font-stretch:normal;line-height:150%;font-family:Ubuntu;-inkscape-font-specification:'Ubuntu Bold';fill:#6f3e8c;fill-opacity:1;stroke-width:0.72953504"
   id="tspan5230-9-7-2">Parti Pirate souhaite une vie politique transparente et participative</tspan></tspan><tspan
         sodipodi:role="line"
         x="60.6478"
         y="-455.76273"
         style="font-style:normal;font-variant:normal;font-weight:normal;font-stretch:normal;font-size:11.67256069px;line-height:100%;font-family:Ubuntu;-inkscape-font-specification:Ubuntu;fill:#000000;fill-opacity:1;stroke-width:0.72953504"
         id="tspan5665-0">et propose :</tspan><tspan
         sodipodi:role="line"
         x="60.6478"
         y="-444.09018"
         style="font-style:normal;font-variant:normal;font-weight:normal;font-stretch:normal;font-size:11.67256069px;line-height:150%;font-family:Ubuntu;-inkscape-font-specification:Ubuntu;fill:#000000;fill-opacity:1;stroke-width:0.72953504"
         id="tspan5667-2" /><tspan
         sodipodi:role="line"
         x="60.6478"
         y="-427.68356"
         style="font-style:normal;font-variant:normal;font-weight:normal;font-stretch:normal;font-size:11.67256069px;line-height:150%;font-family:Ubuntu;-inkscape-font-specification:Ubuntu;fill:#000000;fill-opacity:1;stroke-width:0.72953504"
         id="tspan5669-3">-<tspan
   style="line-height:125%"
   id="tspan3702">  Une réécriture de la constitution au profit des citoyens</tspan></tspan><tspan
         sodipodi:role="line"
         x="60.6478"
         y="-412.54175"
         style="font-style:normal;font-variant:normal;font-weight:normal;font-stretch:normal;font-size:11.67256069px;line-height:125%;font-family:Ubuntu;-inkscape-font-specification:Ubuntu;fill:#000000;fill-opacity:1;stroke-width:0.72953504"
         id="tspan5825">-  Le pouvoir révocatoire du vote blanc</tspan><tspan
         sodipodi:role="line"
         x="60.6478"
         y="-397.95105"
         style="font-style:normal;font-variant:normal;font-weight:normal;font-stretch:normal;font-size:11.67256069px;line-height:125%;font-family:Ubuntu;-inkscape-font-specification:Ubuntu;fill:#000000;fill-opacity:1;stroke-width:0.72953504"
         id="tspan5827">-  Le non-cumul des mandats dans le temps</tspan><tspan
         sodipodi:role="line"
         x="60.6478"
         y="-383.36035"
         style="font-style:normal;font-variant:normal;font-weight:normal;font-stretch:normal;font-size:11.67256069px;line-height:125%;font-family:Ubuntu;-inkscape-font-specification:Ubuntu;fill:#000000;fill-opacity:1;stroke-width:0.72953504"
         id="tspan5841">-  La mise en place d'un bulletin de vote unique financé par l'Etat</tspan><tspan
         sodipodi:role="line"
         x="60.6478"
         y="-368.76965"
         style="font-style:normal;font-variant:normal;font-weight:normal;font-stretch:normal;font-size:11.67256069px;line-height:150%;font-family:Ubuntu;-inkscape-font-specification:Ubuntu;fill:#000000;fill-opacity:1;stroke-width:0.72953504"
         id="tspan5829" /><tspan
         sodipodi:role="line"
         x="60.6478"
         y="-354.17896"
         style="font-style:normal;font-variant:normal;font-weight:normal;font-stretch:normal;font-size:11.67256069px;line-height:150%;font-family:Ubuntu;-inkscape-font-specification:Ubuntu;fill:#000000;fill-opacity:1;stroke-width:0.72953504"
         id="tspan5831" /><tspan
         sodipodi:role="line"
         x="60.6478"
         y="-339.58823"
         style="font-style:normal;font-variant:normal;font-weight:normal;font-stretch:normal;font-size:11.67256069px;line-height:150%;font-family:Ubuntu;-inkscape-font-specification:Ubuntu;stroke-width:0.72953504"
         id="tspan5219-3-4-2" /></text>
<text
       xml:space="preserve"
       style="font-style:normal;font-weight:normal;font-size:29.18139839px;line-height:125%;font-family:sans-serif;letter-spacing:0px;word-spacing:0px;fill:#000000;fill-opacity:1;stroke:none;stroke-width:0.72953504"
       x="61.395203"
       y="-394.43982"
       id="text5213-9-0-8-4"
       transform="scale(0.97271335,-1.0280521)"
       sodipodi:linespacing="125%"><tspan
         sodipodi:role="line"
         x="61.395203"
         y="-394.43982"
         style="font-style:normal;font-variant:normal;font-weight:normal;font-stretch:normal;font-size:11.67256069px;line-height:0.5;font-family:Ubuntu;-inkscape-font-specification:Ubuntu;fill:#000000;fill-opacity:1;stroke-width:0.72953504"
         id="tspan5547-8-4-3" /><tspan
         sodipodi:role="line"
         x="61.395203"
         y="-388.60355"
         style="font-style:normal;font-variant:normal;font-weight:normal;font-stretch:normal;font-size:11.67256069px;line-height:150%;font-family:Ubuntu;-inkscape-font-specification:Ubuntu;fill:#000000;fill-opacity:1;stroke-width:0.72953504"
         id="tspan5584-6-8-5" /><tspan
         sodipodi:role="line"
         x="61.395203"
         y="-382.76727"
         style="font-style:normal;font-variant:normal;font-weight:normal;font-stretch:normal;font-size:11.67256069px;line-height:150%;font-family:Ubuntu;-inkscape-font-specification:Ubuntu;fill:#000000;fill-opacity:1;stroke-width:0.72953504"
         id="tspan5587-2-1-6" /><tspan
         sodipodi:role="line"
         x="61.395203"
         y="-376.93097"
         style="font-style:normal;font-variant:normal;font-weight:normal;font-stretch:normal;font-size:11.67256069px;line-height:150%;font-family:Ubuntu;-inkscape-font-specification:Ubuntu;fill:#000000;fill-opacity:1;stroke-width:0.72953504"
         id="tspan5590-6-2-2" /><tspan
         sodipodi:role="line"
         x="61.395203"
         y="-371.0947"
         style="font-style:normal;font-variant:normal;font-weight:normal;font-stretch:normal;font-size:11.67256069px;line-height:150%;font-family:Ubuntu;-inkscape-font-specification:Ubuntu;fill:#000000;fill-opacity:1;stroke-width:0.72953504"
         id="tspan5593-1-5-3" /><tspan
         sodipodi:role="line"
         x="61.395203"
         y="-355.79034"
         style="font-style:normal;font-variant:normal;font-weight:normal;font-stretch:normal;font-size:11.67256069px;line-height:150%;font-family:Ubuntu;-inkscape-font-specification:Ubuntu;fill:#000000;fill-opacity:1;stroke-width:0.72953504"
         id="tspan5906">Le <tspan
   style="font-style:normal;font-variant:normal;font-weight:bold;font-stretch:normal;line-height:150%;font-family:Ubuntu;-inkscape-font-specification:'Ubuntu Bold';fill:#6f3e8c;fill-opacity:1;stroke-width:0.72953504"
   id="tspan5230-9-7-2-8">Parti Pirate défend les libertés fondamentales et la vie privée</tspan></tspan><tspan
         sodipodi:role="line"
         x="61.395203"
         y="-343.01553"
         style="font-style:normal;font-variant:normal;font-weight:normal;font-stretch:normal;font-size:11.67256069px;line-height:100%;font-family:Ubuntu;-inkscape-font-specification:Ubuntu;fill:#000000;fill-opacity:1;stroke-width:0.72953504"
         id="tspan5665-0-2">et propose de :</tspan><tspan
         sodipodi:role="line"
         x="61.395203"
         y="-331.34299"
         style="font-style:normal;font-variant:normal;font-weight:normal;font-stretch:normal;font-size:11.67256069px;line-height:150%;font-family:Ubuntu;-inkscape-font-specification:Ubuntu;fill:#000000;fill-opacity:1;stroke-width:0.72953504"
         id="tspan5667-2-9" /><tspan
         sodipodi:role="line"
         x="61.395203"
         y="-314.93637"
         style="font-style:normal;font-variant:normal;font-weight:normal;font-stretch:normal;font-size:11.67256069px;line-height:150%;font-family:Ubuntu;-inkscape-font-specification:Ubuntu;fill:#000000;fill-opacity:1;stroke-width:0.72953504"
         id="tspan5669-3-3">-  <tspan
   style="line-height:125%"
   id="tspan3704">Interdire les dispositifs de fichage généralisé</tspan></tspan><tspan
         sodipodi:role="line"
         x="61.395203"
         y="-299.79456"
         style="font-style:normal;font-variant:normal;font-weight:normal;font-stretch:normal;font-size:11.67256069px;line-height:125%;font-family:Ubuntu;-inkscape-font-specification:Ubuntu;fill:#000000;fill-opacity:1;stroke-width:0.72953504"
         id="tspan5922">-  Supprimer les données biométriques des fichiers d'identité</tspan><tspan
         sodipodi:role="line"
         x="61.395203"
         y="-285.20386"
         style="font-style:normal;font-variant:normal;font-weight:normal;font-stretch:normal;font-size:11.67256069px;line-height:125%;font-family:Ubuntu;-inkscape-font-specification:Ubuntu;fill:#000000;fill-opacity:1;stroke-width:0.72953504"
         id="tspan5920">-  Encadrer de manière stricte la nature des informations pouvant être fichées </tspan><tspan
         sodipodi:role="line"
         x="61.395203"
         y="-270.61316"
         style="font-style:normal;font-variant:normal;font-weight:normal;font-stretch:normal;font-size:11.67256069px;line-height:125%;font-family:Ubuntu;-inkscape-font-specification:Ubuntu;fill:#000000;fill-opacity:1;stroke-width:0.72953504"
         id="tspan5918">-  Limiter la vidéosurveillance</tspan><tspan
         sodipodi:role="line"
         x="61.395203"
         y="-256.02246"
         style="font-style:normal;font-variant:normal;font-weight:normal;font-stretch:normal;font-size:11.67256069px;line-height:125%;font-family:Ubuntu;-inkscape-font-specification:Ubuntu;fill:#000000;fill-opacity:1;stroke-width:0.72953504"
         id="tspan5825-3">-  Anonymiser les cartes de transport</tspan><tspan
         sodipodi:role="line"
         x="61.395203"
         y="-241.43175"
         style="font-style:normal;font-variant:normal;font-weight:normal;font-stretch:normal;font-size:11.67256069px;line-height:125%;font-family:Ubuntu;-inkscape-font-specification:Ubuntu;fill:#000000;fill-opacity:1;stroke-width:0.72953504"
         id="tspan5827-5">-  Faire respecter la confidentialité des échanges (courriels)</tspan><tspan
         sodipodi:role="line"
         x="61.395203"
         y="-226.84105"
         style="font-style:normal;font-variant:normal;font-weight:normal;font-stretch:normal;font-size:11.67256069px;line-height:125%;font-family:Ubuntu;-inkscape-font-specification:Ubuntu;fill:#000000;fill-opacity:1;stroke-width:0.72953504"
         id="tspan5829-6">-  Protéger les moyens de paiement en liquide</tspan><tspan
         sodipodi:role="line"
         x="61.395203"
         y="-212.25035"
         style="font-style:normal;font-variant:normal;font-weight:normal;font-stretch:normal;font-size:11.67256069px;line-height:150%;font-family:Ubuntu;-inkscape-font-specification:Ubuntu;fill:#000000;fill-opacity:1;stroke-width:0.72953504"
         id="tspan5831-4" /><tspan
         sodipodi:role="line"
         x="61.395203"
         y="-197.65965"
         style="font-style:normal;font-variant:normal;font-weight:normal;font-stretch:normal;font-size:11.67256069px;line-height:150%;font-family:Ubuntu;-inkscape-font-specification:Ubuntu;stroke-width:0.72953504"
         id="tspan5219-3-4-2-5" /></text>
<flowRoot
       xml:space="preserve"
       id="flowRoot5934"
       style="fill:black;fill-opacity:1;stroke:none;font-family:sans-serif;font-style:normal;font-weight:normal;font-size:40px;line-height:1.25;letter-spacing:0px;word-spacing:0px"><flowRegion
         id="flowRegion5936"><rect
           id="rect5938"
           width="566.1972"
           height="757.74646"
           x="825.35211"
           y="167.59044" /></flowRegion><flowPara
         id="flowPara5940" /></flowRoot><flowRoot
       xml:space="preserve"
       id="flowRoot5944"
       style="fill:black;fill-opacity:1;stroke:none;font-family:sans-serif;font-style:normal;font-weight:normal;font-size:40px;line-height:1.25;letter-spacing:0px;word-spacing:0px"><flowRegion
         id="flowRegion5946"><rect
           id="rect5948"
           width="1105.6338"
           height="885.91547"
           x="-164.78873"
           y="121.11157" /></flowRegion><flowPara
         id="flowPara5950" /></flowRoot><text
       style="font-variant:normal;font-weight:bold;font-stretch:normal;font-size:27px;font-family:Arial;-inkscape-font-specification:Arial-BoldMT;writing-mode:lr-tb;fill:#ffffff;fill-opacity:1;fill-rule:nonzero;stroke:none;stroke-width:0.99999994"
       id="text470-34"
       x="24.819551"
       y="-81.399422"
       transform="scale(1,-1)"><tspan
         style="font-size:16px;stroke-width:0.99999994"
         sodipodi:role="line"
         id="tspan468-0"
         x="24.819551"
         y="-81.399422">Votre candidat : Ronan LE ROY</tspan></text>
<text
       style="font-variant:normal;font-weight:bold;font-stretch:normal;font-size:27px;font-family:Arial;-inkscape-font-specification:Arial-BoldMT;writing-mode:lr-tb;fill:#ffffff;fill-opacity:1;fill-rule:nonzero;stroke:none;stroke-width:0.99999994"
       id="text470-34-9"
       x="29.218706"
       y="-53.288277"
       transform="scale(1,-1)"><tspan
         style="font-style:normal;font-variant:normal;font-weight:normal;font-stretch:normal;font-size:15px;font-family:Arial;-inkscape-font-specification:Arial;stroke-width:0.99999994"
         sodipodi:role="line"
         id="tspan468-0-2"
         x="29.218706"
         y="-53.288277">twitter : @ronanleroy</tspan><tspan
         style="font-style:normal;font-variant:normal;font-weight:normal;font-stretch:normal;font-size:15px;font-family:Arial;-inkscape-font-specification:Arial;stroke-width:0.99999994"
         sodipodi:role="line"
         x="29.218706"
         y="-34.538277"
         id="tspan3728">courriel : pirate2017@leroy.bzh</tspan><tspan
         style="font-style:normal;font-variant:normal;font-weight:normal;font-stretch:normal;font-size:15px;font-family:Arial;-inkscape-font-specification:Arial;stroke-width:0.99999994"
         sodipodi:role="line"
         x="29.218706"
         y="-15.788277"
         id="tspan3730">site : www.pirate2017.leroy.bzh</tspan></text>
</g></svg>